4
75.4
1508 1508
1.3092013e+02 1.3092000e+02
0.00335482 2.61134 2.6208 3.42564 4.97368 26.6734 36.8572 57.8298 82.7977 202.639 217.765 243.982
0 0 0 0 0 -1.88800e-01 0 0 1.88800e-01 0 0 0
0 0 1.29965e-01 0 0 1.32442e-01 0 0 1.32442e-01 0 0 1.29965e-01
0 -1.30914e-01 0 2.43566e-04 -1.31436e-01 0 2.43566e-04 -1.31436e-01 0 0 -1.30914e-01 0
0 0 1.82362e-01 0 0 0 0 0 0 0 0 -1.82362e-01
9.77257e-03 -1.69003e-01 0 -4.77694e-02 -5.14451e-02 0 4.77694e-02 5.14451e-02 0 -9.77257e-03 1.69003e-01 0
0 0 1.27925e-01 0 0 -1.34554e-01 0 0 -1.34554e-01 0 0 1.27925e-01
-9.50034e-02 -4.38529e-02 0 -1.47457e-01 4.65439e-02 0 -1.47457e-01 4.65439e-02 0 -9.50034e-02 -4.38529e-02 0
1.01175e-01 -1.05623e-01 0 -6.07093e-04 1.12763e-01 0 -6.07093e-04 1.12763e-01 0 1.01175e-01 -1.05623e-01 0
1.48502e-01 -3.16167e-02 0 8.02705e-02 6.70303e-02 0 -8.02705e-02 -6.70303e-02 0 -1.48502e-01 3.16167e-02 0
7.44551e-02 4.83550e-02 0 1.02219e-02 -1.64599e-01 0 -1.02219e-02 1.64599e-01 0 -7.44551e-02 -4.83550e-02 0
-1.18295e-01 -5.51182e-02 0 1.17904e-01 5.90625e-02 0 1.17904e-01 5.90625e-02 0 -1.18295e-01 -5.51182e-02 0
-7.45905e-02 -3.68207e-02 0 1.63755e-01 -3.75899e-02 0 -1.63755e-01 3.75899e-02 0 7.45905e-02 3.68207e-02 0
