2
75.4
1508 1508
1.3092013e+02 1.3092000e+02
3.64724 3.64724 3.92142 7.72426 57.6678 218.671
0 1.28951e-01 1.28948e-01 0 1.28951e-01 1.28948e-01
0 -1.28948e-01 1.28951e-01 0 -1.28948e-01 1.28951e-01
0 1.72123e-01 -6.02432e-02 0 -1.72123e-01 6.02432e-02
-2.03524e-02 -5.98669e-02 -1.71048e-01 2.03524e-02 5.98669e-02 1.71048e-01
1.82362e-01 0 0 1.82362e-01 0 0
1.81222e-01 -6.72342e-03 -1.92098e-02 -1.81222e-01 6.72342e-03 1.92098e-02
