\relax 
\@writefile{toc}{\contentsline {section}{\numberline {8.2}functions.h File Reference}{20}{section.8.2}}
\newlabel{functions_8h}{{8.2}{20}{functions.h File Reference\relax }{section.8.2}{}}
\@writefile{toc}{\contentsline {subsection}{\numberline {8.2.1}Detailed Description}{23}{subsection.8.2.1}}
\@writefile{toc}{\contentsline {subsection}{\numberline {8.2.2}Define Documentation}{24}{subsection.8.2.2}}
\@writefile{toc}{\contentsline {subsubsection}{\numberline {8.2.2.1}DIM}{24}{subsubsection.8.2.2.1}}
\newlabel{functions_8h_8bea0306ccd2c4eb66253315270c2d2e}{{8.2.2.1}{24}{DIM\relax }{subsubsection.8.2.2.1}{}}
\@writefile{toc}{\contentsline {subsubsection}{\numberline {8.2.2.2}GCC\_\discretionary {-}{}{}VERSION}{24}{subsubsection.8.2.2.2}}
\newlabel{functions_8h_c43f54a9200d282f62d82a19fdc02252}{{8.2.2.2}{24}{GCC\_\-VERSION\relax }{subsubsection.8.2.2.2}{}}
\@writefile{toc}{\contentsline {subsubsection}{\numberline {8.2.2.3}MAX\_\discretionary {-}{}{}NFREQ}{24}{subsubsection.8.2.2.3}}
\newlabel{functions_8h_34fb32f39a9b905e4f1b8e081aaa0e8c}{{8.2.2.3}{24}{MAX\_\-NFREQ\relax }{subsubsection.8.2.2.3}{}}
\@writefile{toc}{\contentsline {subsubsection}{\numberline {8.2.2.4}MAX\_\discretionary {-}{}{}OMEGAINF}{24}{subsubsection.8.2.2.4}}
\newlabel{functions_8h_f98a7e59c4b498c9ae94ef74023c6771}{{8.2.2.4}{24}{MAX\_\-OMEGAINF\relax }{subsubsection.8.2.2.4}{}}
\@writefile{toc}{\contentsline {subsubsection}{\numberline {8.2.2.5}MCHN\_\discretionary {-}{}{}EPSLN\_\discretionary {-}{}{}DBL}{24}{subsubsection.8.2.2.5}}
\newlabel{functions_8h_0c44fd7746194d61b7524d279871d99c}{{8.2.2.5}{24}{MCHN\_\-EPSLN\_\-DBL\relax }{subsubsection.8.2.2.5}{}}
\@writefile{toc}{\contentsline {subsubsection}{\numberline {8.2.2.6}MIN\_\discretionary {-}{}{}OMEGA}{25}{subsubsection.8.2.2.6}}
\newlabel{functions_8h_457245e9429cbeb9c2bbb0e8a2dc2992}{{8.2.2.6}{25}{MIN\_\-OMEGA\relax }{subsubsection.8.2.2.6}{}}
\@writefile{toc}{\contentsline {subsubsection}{\numberline {8.2.2.7}NBATHS}{25}{subsubsection.8.2.2.7}}
\newlabel{functions_8h_b1fb0994a55452802d27caf1f42bcbfa}{{8.2.2.7}{25}{NBATHS\relax }{subsubsection.8.2.2.7}{}}
\@writefile{toc}{\contentsline {subsubsection}{\numberline {8.2.2.8}PI}{25}{subsubsection.8.2.2.8}}
\newlabel{functions_8h_b4250e743fd9a8d6a9f9b1844733341c}{{8.2.2.8}{25}{PI\relax }{subsubsection.8.2.2.8}{}}
\@writefile{toc}{\contentsline {subsubsection}{\numberline {8.2.2.9}SQ\_\discretionary {-}{}{}RAD\_\discretionary {-}{}{}PER\_\discretionary {-}{}{}SQ\_\discretionary {-}{}{}PICOSEC\_\discretionary {-}{}{}2\_\discretionary {-}{}{}W}{25}{subsubsection.8.2.2.9}}
\newlabel{functions_8h_9db8f57f2597ac8143ea835f29ded31b}{{8.2.2.9}{25}{SQ\_\-RAD\_\-PER\_\-SQ\_\-PICOSEC\_\-2\_\-W\relax }{subsubsection.8.2.2.9}{}}
\@writefile{toc}{\contentsline {subsubsection}{\numberline {8.2.2.10}TRANS\_\discretionary {-}{}{}ARG\_\discretionary {-}{}{}MAX}{25}{subsubsection.8.2.2.10}}
\newlabel{functions_8h_6fadb80f7a0efb137d0e0e513cd5852a}{{8.2.2.10}{25}{TRANS\_\-ARG\_\-MAX\relax }{subsubsection.8.2.2.10}{}}
\@writefile{toc}{\contentsline {subsubsection}{\numberline {8.2.2.11}TRANS\_\discretionary {-}{}{}IM\_\discretionary {-}{}{}MAX}{26}{subsubsection.8.2.2.11}}
\newlabel{functions_8h_3df57a570e4f2d87d662a434b46156fc}{{8.2.2.11}{26}{TRANS\_\-IM\_\-MAX\relax }{subsubsection.8.2.2.11}{}}
\@writefile{toc}{\contentsline {subsubsection}{\numberline {8.2.2.12}TRANSMISSION\_\discretionary {-}{}{}MAX}{26}{subsubsection.8.2.2.12}}
\newlabel{functions_8h_18e10d1d8bb4ee3b6857ec85cd029f7d}{{8.2.2.12}{26}{TRANSMISSION\_\-MAX\relax }{subsubsection.8.2.2.12}{}}
\@writefile{toc}{\contentsline {subsubsection}{\numberline {8.2.2.13}WVNR\_\discretionary {-}{}{}2\_\discretionary {-}{}{}RAD\_\discretionary {-}{}{}PER\_\discretionary {-}{}{}PS}{26}{subsubsection.8.2.2.13}}
\newlabel{functions_8h_e49414742f0ed7ed501119632cc0010b}{{8.2.2.13}{26}{WVNR\_\-2\_\-RAD\_\-PER\_\-PS\relax }{subsubsection.8.2.2.13}{}}
\@writefile{toc}{\contentsline {subsection}{\numberline {8.2.3}Function Documentation}{26}{subsection.8.2.3}}
\@writefile{toc}{\contentsline {subsubsection}{\numberline {8.2.3.1}calcGammaNM}{26}{subsubsection.8.2.3.1}}
\newlabel{functions_8h_088c749981b7a47a3ece2cb5eee7ad07}{{8.2.3.1}{26}{calcGammaNM\relax }{subsubsection.8.2.3.1}{}}
\@writefile{toc}{\contentsline {subsubsection}{\numberline {8.2.3.2}calcGreens}{26}{subsubsection.8.2.3.2}}
\newlabel{functions_8h_0285b5a502b8bb296317d961d5405e84}{{8.2.3.2}{26}{calcGreens\relax }{subsubsection.8.2.3.2}{}}
\@writefile{toc}{\contentsline {subsubsection}{\numberline {8.2.3.3}calcInverseResolvent}{26}{subsubsection.8.2.3.3}}
\newlabel{functions_8h_7a20bb7229e497c7ff8dda262c6417dc}{{8.2.3.3}{26}{calcInverseResolvent\relax }{subsubsection.8.2.3.3}{}}
\@writefile{toc}{\contentsline {subsubsection}{\numberline {8.2.3.4}calcOmegaCurrent}{27}{subsubsection.8.2.3.4}}
\newlabel{functions_8h_8a11e023ebf4f08040d5bb09d24742bf}{{8.2.3.4}{27}{calcOmegaCurrent\relax }{subsubsection.8.2.3.4}{}}
\@writefile{toc}{\contentsline {subsubsection}{\numberline {8.2.3.5}calcOmegaDomain}{27}{subsubsection.8.2.3.5}}
\newlabel{functions_8h_a98619028578e5a191238247c3a90002}{{8.2.3.5}{27}{calcOmegaDomain\relax }{subsubsection.8.2.3.5}{}}
\@writefile{toc}{\contentsline {subsubsection}{\numberline {8.2.3.6}calcOmegaGammas}{27}{subsubsection.8.2.3.6}}
\newlabel{functions_8h_a478ef19e64748d35eb6a612a07f5671}{{8.2.3.6}{27}{calcOmegaGammas\relax }{subsubsection.8.2.3.6}{}}
\@writefile{toc}{\contentsline {subsubsection}{\numberline {8.2.3.7}calcOmegaPops}{27}{subsubsection.8.2.3.7}}
\newlabel{functions_8h_e7d749e5c2eed51238b9829d32118150}{{8.2.3.7}{27}{calcOmegaPops\relax }{subsubsection.8.2.3.7}{}}
\@writefile{toc}{\contentsline {subsubsection}{\numberline {8.2.3.8}calcOmegaTransmission}{28}{subsubsection.8.2.3.8}}
\newlabel{functions_8h_70cbc182c79ef12a4a4a3848f38c0baf}{{8.2.3.8}{28}{calcOmegaTransmission\relax }{subsubsection.8.2.3.8}{}}
\@writefile{toc}{\contentsline {subsubsection}{\numberline {8.2.3.9}calcRigidBodyDOF}{29}{subsubsection.8.2.3.9}}
\newlabel{functions_8h_95e7bdc963db2c9bb808e0006fbd47ec}{{8.2.3.9}{29}{calcRigidBodyDOF\relax }{subsubsection.8.2.3.9}{}}
\@writefile{toc}{\contentsline {subsubsection}{\numberline {8.2.3.10}calcSqDelta}{29}{subsubsection.8.2.3.10}}
\newlabel{functions_8h_c8ba0f67b1944c162264c7d2ddd261da}{{8.2.3.10}{29}{calcSqDelta\relax }{subsubsection.8.2.3.10}{}}
\@writefile{toc}{\contentsline {subsubsection}{\numberline {8.2.3.11}doAvgCurrent}{29}{subsubsection.8.2.3.11}}
\newlabel{functions_8h_b66b2c3945111dc84928c7090fcc7fbd}{{8.2.3.11}{29}{doAvgCurrent\relax }{subsubsection.8.2.3.11}{}}
\@writefile{toc}{\contentsline {subsubsection}{\numberline {8.2.3.12}doGNUPlot}{29}{subsubsection.8.2.3.12}}
\newlabel{functions_8h_b2d4a90af3cb0e6902e72494b47472f6}{{8.2.3.12}{29}{doGNUPlot\relax }{subsubsection.8.2.3.12}{}}
\@writefile{toc}{\contentsline {subsubsection}{\numberline {8.2.3.13}doOutput}{29}{subsubsection.8.2.3.13}}
\newlabel{functions_8h_e40cad9b51aae68f2d2b949de0820a1b}{{8.2.3.13}{29}{doOutput\relax }{subsubsection.8.2.3.13}{}}
\@writefile{toc}{\contentsline {subsubsection}{\numberline {8.2.3.14}freeUpHeap\_\discretionary {-}{}{}ProductionOnly}{30}{subsubsection.8.2.3.14}}
\newlabel{functions_8h_afa7b4de79533180366a3e316ab75ef4}{{8.2.3.14}{30}{freeUpHeap\_\-ProductionOnly\relax }{subsubsection.8.2.3.14}{}}
\@writefile{toc}{\contentsline {subsubsection}{\numberline {8.2.3.15}freeUpHeap\_\discretionary {-}{}{}TestsOrProduction}{30}{subsubsection.8.2.3.15}}
\newlabel{functions_8h_dea432c6585b0d4a90eb5b5d927f952b}{{8.2.3.15}{30}{freeUpHeap\_\-TestsOrProduction\relax }{subsubsection.8.2.3.15}{}}
\@writefile{toc}{\contentsline {subsubsection}{\numberline {8.2.3.16}isResonance}{30}{subsubsection.8.2.3.16}}
\newlabel{functions_8h_dd50cfe94b943de4fc854564d4c4f68a}{{8.2.3.16}{30}{isResonance\relax }{subsubsection.8.2.3.16}{}}
\@writefile{toc}{\contentsline {subsubsection}{\numberline {8.2.3.17}printOmegaCurrent2File}{30}{subsubsection.8.2.3.17}}
\newlabel{functions_8h_bcbac13a8516e2cb0c1cc0083455c55c}{{8.2.3.17}{30}{printOmegaCurrent2File\relax }{subsubsection.8.2.3.17}{}}
\@writefile{toc}{\contentsline {subsubsection}{\numberline {8.2.3.18}readDomega}{31}{subsubsection.8.2.3.18}}
\newlabel{functions_8h_b6cbf45f87bd0a58c7352241b5f19d08}{{8.2.3.18}{31}{readDomega\relax }{subsubsection.8.2.3.18}{}}
\@writefile{toc}{\contentsline {subsubsection}{\numberline {8.2.3.19}readFreq}{31}{subsubsection.8.2.3.19}}
\newlabel{functions_8h_51794a90f447b375656adf55745ab344}{{8.2.3.19}{31}{readFreq\relax }{subsubsection.8.2.3.19}{}}
\@writefile{toc}{\contentsline {subsubsection}{\numberline {8.2.3.20}readNfreq}{31}{subsubsection.8.2.3.20}}
\newlabel{functions_8h_915a5eff9da181e59c3b6fce37080787}{{8.2.3.20}{31}{readNfreq\relax }{subsubsection.8.2.3.20}{}}
\@writefile{toc}{\contentsline {subsubsection}{\numberline {8.2.3.21}readTemps}{31}{subsubsection.8.2.3.21}}
\newlabel{functions_8h_ee4cf09807c5dc13cebfef3e0e6b8f58}{{8.2.3.21}{31}{readTemps\relax }{subsubsection.8.2.3.21}{}}
\@writefile{toc}{\contentsline {subsubsection}{\numberline {8.2.3.22}readVec}{31}{subsubsection.8.2.3.22}}
\newlabel{functions_8h_49634620e96ad03354e2145f0343b3ae}{{8.2.3.22}{31}{readVec\relax }{subsubsection.8.2.3.22}{}}
\@setckpt{functions_8h}{
\setcounter{page}{32}
\setcounter{equation}{0}
\setcounter{enumi}{0}
\setcounter{enumii}{0}
\setcounter{enumiii}{0}
\setcounter{enumiv}{0}
\setcounter{footnote}{0}
\setcounter{mpfootnote}{0}
\setcounter{part}{0}
\setcounter{chapter}{8}
\setcounter{section}{2}
\setcounter{subsection}{3}
\setcounter{subsubsection}{22}
\setcounter{paragraph}{0}
\setcounter{subparagraph}{0}
\setcounter{figure}{0}
\setcounter{table}{0}
\setcounter{float@type}{4}
\setcounter{Item}{0}
\setcounter{Hfootnote}{0}
\setcounter{section@level}{3}
}
