%!PS-Adobe-2.0
%%Creator: dot version 2.6 (Tue Nov  4 00:07:08 UTC 2008)
%%For: (inonshar) 
%%Title: G
%%Pages: (atend)
%%BoundingBox: 0 0 189 259
%%EndComments
save
%%BeginProlog
/DotDict 200 dict def
DotDict begin

/setupLatin1 {
mark
/EncodingVector 256 array def
 EncodingVector 0

ISOLatin1Encoding 0 255 getinterval putinterval
EncodingVector 45 /hyphen put

% Set up ISO Latin 1 character encoding
/starnetISO {
        dup dup findfont dup length dict begin
        { 1 index /FID ne { def }{ pop pop } ifelse
        } forall
        /Encoding EncodingVector def
        currentdict end definefont
} def
/Times-Roman starnetISO def
/Times-Italic starnetISO def
/Times-Bold starnetISO def
/Times-BoldItalic starnetISO def
/Helvetica starnetISO def
/Helvetica-Oblique starnetISO def
/Helvetica-Bold starnetISO def
/Helvetica-BoldOblique starnetISO def
/Courier starnetISO def
/Courier-Oblique starnetISO def
/Courier-Bold starnetISO def
/Courier-BoldOblique starnetISO def
cleartomark
} bind def

%%BeginResource: procset graphviz 0 0
/coord-font-family /Times-Roman def
/default-font-family /Times-Roman def
/coordfont coord-font-family findfont 8 scalefont def

/InvScaleFactor 1.0 def
/set_scale {
	dup 1 exch div /InvScaleFactor exch def
	dup scale
} bind def

% styles
/solid { [] 0 setdash } bind def
/dashed { [9 InvScaleFactor mul dup ] 0 setdash } bind def
/dotted { [1 InvScaleFactor mul 6 InvScaleFactor mul] 0 setdash } bind def
/invis {/fill {newpath} def /stroke {newpath} def /show {pop newpath} def} bind def
/bold { 2 setlinewidth } bind def
/filled { } bind def
/unfilled { } bind def
/rounded { } bind def
/diagonals { } bind def

% hooks for setting color 
/nodecolor { sethsbcolor } bind def
/edgecolor { sethsbcolor } bind def
/graphcolor { sethsbcolor } bind def
/nopcolor {pop pop pop} bind def

/beginpage {	% i j npages
	/npages exch def
	/j exch def
	/i exch def
	/str 10 string def
	npages 1 gt {
		gsave
			coordfont setfont
			0 0 moveto
			(\() show i str cvs show (,) show j str cvs show (\)) show
		grestore
	} if
} bind def

/set_font {
	findfont exch
	scalefont setfont
} def

% draw aligned label in bounding box aligned to current point
/alignedtext {			% width adj text
	/text exch def
	/adj exch def
	/width exch def
	gsave
		width 0 gt {
			text stringwidth pop adj mul 0 rmoveto
		} if
		[] 0 setdash
		text show
	grestore
} def

/boxprim {				% xcorner ycorner xsize ysize
		4 2 roll
		moveto
		2 copy
		exch 0 rlineto
		0 exch rlineto
		pop neg 0 rlineto
		closepath
} bind def

/ellipse_path {
	/ry exch def
	/rx exch def
	/y exch def
	/x exch def
	matrix currentmatrix
	newpath
	x y translate
	rx ry scale
	0 0 1 0 360 arc
	setmatrix
} bind def

/endpage { showpage } bind def
/showpage { } def

/layercolorseq
	[	% layer color sequence - darkest to lightest
		[0 0 0]
		[.2 .8 .8]
		[.4 .8 .8]
		[.6 .8 .8]
		[.8 .8 .8]
	]
def

/layerlen layercolorseq length def

/setlayer {/maxlayer exch def /curlayer exch def
	layercolorseq curlayer 1 sub layerlen mod get
	aload pop sethsbcolor
	/nodecolor {nopcolor} def
	/edgecolor {nopcolor} def
	/graphcolor {nopcolor} def
} bind def

/onlayer { curlayer ne {invis} if } def

/onlayers {
	/myupper exch def
	/mylower exch def
	curlayer mylower lt
	curlayer myupper gt
	or
	{invis} if
} def

/curlayer 0 def

%%EndResource
%%EndProlog
%%BeginSetup
14 default-font-family set_font
1 setmiterlimit
% /arrowlength 10 def
% /arrowwidth 5 def

% make sure pdfmark is harmless for PS-interpreters other than Distiller
/pdfmark where {pop} {userdict /pdfmark /cleartomark load put} ifelse
% make '<<' and '>>' safe on PS Level 1 devices
/languagelevel where {pop languagelevel}{1} ifelse
2 lt {
    userdict (<<) cvn ([) cvn load put
    userdict (>>) cvn ([) cvn load put
} if

%%EndSetup
%%Page: 1 1
%%PageBoundingBox: 5 5 184 254
%%PageOrientation: Portrait
gsave
0 0 189 259 boxprim clip newpath
5 5 translate
0 0 1 beginpage
1.0000 set_scale
0 0 translate 0 rotate
0.000 0.000 0.000 graphcolor
10.00 /FreeSans.ttf set_font
% Node1
gsave 10 dict begin
filled
0.000 0.000 0.749 nodecolor
newpath 1 114 moveto
72 114 lineto
72 134 lineto
1 134 lineto
closepath
fill
0.000 0.000 0.000 nodecolor
newpath 1 114 moveto
72 114 lineto
72 134 lineto
1 134 lineto
closepath
stroke
gsave 10 dict begin
8 121 moveto
(functions.h)
[3.36 6.24 6.24 5.52 3.84 2.88 6 6.24 5.04 2.88 6.24]
xshow
end grestore
end grestore
% Node2
gsave 10 dict begin
filled
0.000 0.000 0.749 nodecolor
0.000 0.000 1.000 nodecolor
newpath 113 228 moveto
173 228 lineto
173 248 lineto
113 248 lineto
closepath
fill
0.000 0.000 0.749 nodecolor
newpath 113 228 moveto
173 228 lineto
173 248 lineto
113 248 lineto
closepath
stroke
gsave 10 dict begin
0.000 0.000 0.000 nodecolor
121 235 moveto
(iostream)
[2.88 6 5.04 3.84 3.84 6 6 9.6]
xshow
end grestore
end grestore
% Node1->Node2
gsave 10 dict begin
solid
0.667 0.776 0.439 edgecolor
newpath 42 134 moveto
53 153 78 193 108 219 curveto
110 220 111 221 113 223 curveto
stroke
gsave 10 dict begin
solid
1 setlinewidth
0.667 0.776 0.439 edgecolor
newpath 112 226 moveto
122 228 lineto
115 220 lineto
closepath
fill
0.667 0.776 0.439 edgecolor
newpath 112 226 moveto
122 228 lineto
115 220 lineto
closepath
stroke
end grestore
end grestore
% Node3
gsave 10 dict begin
filled
0.000 0.000 0.749 nodecolor
0.000 0.000 1.000 nodecolor
newpath 116 190 moveto
170 190 lineto
170 210 lineto
116 210 lineto
closepath
fill
0.000 0.000 0.749 nodecolor
newpath 116 190 moveto
170 190 lineto
170 210 lineto
116 210 lineto
closepath
stroke
gsave 10 dict begin
0.000 0.000 0.000 nodecolor
124 197 moveto
(fstream)
[3.36 5.04 3.84 3.84 6 6 9.6]
xshow
end grestore
end grestore
% Node1->Node3
gsave 10 dict begin
solid
0.667 0.776 0.439 edgecolor
newpath 48 134 moveto
62 146 86 166 108 181 curveto
110 182 113 184 115 185 curveto
stroke
gsave 10 dict begin
solid
1 setlinewidth
0.667 0.776 0.439 edgecolor
newpath 114 188 moveto
124 190 lineto
117 182 lineto
closepath
fill
0.667 0.776 0.439 edgecolor
newpath 114 188 moveto
124 190 lineto
117 182 lineto
closepath
stroke
end grestore
end grestore
% Node4
gsave 10 dict begin
filled
0.000 0.000 0.749 nodecolor
0.000 0.000 1.000 nodecolor
newpath 119 152 moveto
168 152 lineto
168 172 lineto
119 172 lineto
closepath
fill
0.000 0.000 0.749 nodecolor
newpath 119 152 moveto
168 152 lineto
168 172 lineto
119 172 lineto
closepath
stroke
gsave 10 dict begin
0.000 0.000 0.000 nodecolor
126 159 moveto
(cstdlib)
[5.52 5.04 3.84 6.24 2.88 2.88 6.24]
xshow
end grestore
end grestore
% Node1->Node4
gsave 10 dict begin
solid
0.667 0.776 0.439 edgecolor
newpath 64 134 moveto
78 139 95 144 109 150 curveto
stroke
gsave 10 dict begin
solid
1 setlinewidth
0.667 0.776 0.439 edgecolor
newpath 108 153 moveto
119 153 lineto
110 147 lineto
closepath
fill
0.667 0.776 0.439 edgecolor
newpath 108 153 moveto
119 153 lineto
110 147 lineto
closepath
stroke
end grestore
end grestore
% Node5
gsave 10 dict begin
filled
0.000 0.000 0.749 nodecolor
0.000 0.000 1.000 nodecolor
newpath 119 114 moveto
167 114 lineto
167 134 lineto
119 134 lineto
closepath
fill
0.000 0.000 0.749 nodecolor
newpath 119 114 moveto
167 114 lineto
167 134 lineto
119 134 lineto
closepath
stroke
gsave 10 dict begin
0.000 0.000 0.000 nodecolor
127 121 moveto
(cmath)
[5.52 9.6 6 3.84 6.24]
xshow
end grestore
end grestore
% Node1->Node5
gsave 10 dict begin
solid
0.667 0.776 0.439 edgecolor
newpath 72 124 moveto
84 124 97 124 109 124 curveto
stroke
gsave 10 dict begin
solid
1 setlinewidth
0.667 0.776 0.439 edgecolor
newpath 109 128 moveto
119 124 lineto
109 121 lineto
closepath
fill
0.667 0.776 0.439 edgecolor
newpath 109 128 moveto
119 124 lineto
109 121 lineto
closepath
stroke
end grestore
end grestore
% Node6
gsave 10 dict begin
filled
0.000 0.000 0.749 nodecolor
0.000 0.000 1.000 nodecolor
newpath 108 76 moveto
178 76 lineto
178 96 lineto
108 96 lineto
closepath
fill
0.000 0.000 0.749 nodecolor
newpath 108 76 moveto
178 76 lineto
178 96 lineto
108 96 lineto
closepath
stroke
gsave 10 dict begin
0.000 0.000 0.000 nodecolor
116 83 moveto
(Eigen/Core)
[6.24 2.88 6.24 6 6.24 3.36 6.72 6 3.84 6]
xshow
end grestore
end grestore
% Node1->Node6
gsave 10 dict begin
solid
0.667 0.776 0.439 edgecolor
newpath 64 114 moveto
77 110 92 105 105 100 curveto
stroke
gsave 10 dict begin
solid
1 setlinewidth
0.667 0.776 0.439 edgecolor
newpath 107 103 moveto
115 96 lineto
104 96 lineto
closepath
fill
0.667 0.776 0.439 edgecolor
newpath 107 103 moveto
115 96 lineto
104 96 lineto
closepath
stroke
end grestore
end grestore
% Node7
gsave 10 dict begin
filled
0.000 0.000 0.749 nodecolor
0.000 0.000 1.000 nodecolor
newpath 113 38 moveto
173 38 lineto
173 58 lineto
113 58 lineto
closepath
fill
0.000 0.000 0.749 nodecolor
newpath 113 38 moveto
173 38 lineto
173 58 lineto
113 58 lineto
closepath
stroke
gsave 10 dict begin
0.000 0.000 0.000 nodecolor
121 45 moveto
(Eigen/LU)
[6.24 2.88 6.24 6 6.24 3.36 5.04 7.2]
xshow
end grestore
end grestore
% Node1->Node7
gsave 10 dict begin
solid
0.667 0.776 0.439 edgecolor
newpath 47 114 moveto
61 102 85 82 108 67 curveto
110 66 112 65 114 63 curveto
stroke
gsave 10 dict begin
solid
1 setlinewidth
0.667 0.776 0.439 edgecolor
newpath 116 66 moveto
123 58 lineto
113 60 lineto
closepath
fill
0.667 0.776 0.439 edgecolor
newpath 116 66 moveto
123 58 lineto
113 60 lineto
closepath
stroke
end grestore
end grestore
% Node8
gsave 10 dict begin
filled
0.000 0.000 0.749 nodecolor
0.000 0.000 1.000 nodecolor
newpath 121 0 moveto
165 0 lineto
165 20 lineto
121 20 lineto
closepath
fill
0.000 0.000 0.749 nodecolor
newpath 121 0 moveto
165 0 lineto
165 20 lineto
121 20 lineto
closepath
stroke
gsave 10 dict begin
0.000 0.000 0.000 nodecolor
129 7 moveto
(limits)
[2.88 2.88 9.6 2.88 3.84 5.04]
xshow
end grestore
end grestore
% Node1->Node8
gsave 10 dict begin
solid
0.667 0.776 0.439 edgecolor
newpath 42 114 moveto
52 95 78 55 108 29 curveto
109 28 111 27 113 26 curveto
stroke
gsave 10 dict begin
solid
1 setlinewidth
0.667 0.776 0.439 edgecolor
newpath 115 29 moveto
121 20 lineto
111 23 lineto
closepath
fill
0.667 0.776 0.439 edgecolor
newpath 115 29 moveto
121 20 lineto
111 23 lineto
closepath
stroke
end grestore
end grestore
endpage
showpage
grestore
%%PageTrailer
%%EndPage: 1
%%Trailer
%%Pages: 1
end
restore
%%EOF
