\relax 
\@writefile{toc}{\contentsline {section}{\numberline {8.3}Landauer\discretionary {-}{}{}Heat\discretionary {-}{}{}Current.cpp File Reference}{32}{section.8.3}}
\newlabel{LandauerHeatCurrent_8cpp}{{8.3}{32}{Landauer\-Heat\-Current.cpp File Reference\relax }{section.8.3}{}}
\@writefile{toc}{\contentsline {subsection}{\numberline {8.3.1}Detailed Description}{32}{subsection.8.3.1}}
\@writefile{toc}{\contentsline {subsection}{\numberline {8.3.2}Function Documentation}{33}{subsection.8.3.2}}
\@writefile{toc}{\contentsline {subsubsection}{\numberline {8.3.2.1}main}{33}{subsubsection.8.3.2.1}}
\newlabel{LandauerHeatCurrent_8cpp_446c6b9a1a4dbab517fbb760870458a3}{{8.3.2.1}{33}{main\relax }{subsubsection.8.3.2.1}{}}
\@setckpt{LandauerHeatCurrent_8cpp}{
\setcounter{page}{36}
\setcounter{equation}{0}
\setcounter{enumi}{0}
\setcounter{enumii}{0}
\setcounter{enumiii}{0}
\setcounter{enumiv}{0}
\setcounter{footnote}{0}
\setcounter{mpfootnote}{0}
\setcounter{part}{0}
\setcounter{chapter}{8}
\setcounter{section}{3}
\setcounter{subsection}{2}
\setcounter{subsubsection}{1}
\setcounter{paragraph}{0}
\setcounter{subparagraph}{0}
\setcounter{figure}{0}
\setcounter{table}{0}
\setcounter{float@type}{4}
\setcounter{Item}{0}
\setcounter{Hfootnote}{0}
\setcounter{section@level}{3}
}
