%!PS-Adobe-2.0
%%Creator: dot version 2.6 (Tue Nov  4 00:07:08 UTC 2008)
%%For: (inonshar) 
%%Title: G
%%Pages: (atend)
%%BoundingBox: 0 0 257 905
%%EndComments
save
%%BeginProlog
/DotDict 200 dict def
DotDict begin

/setupLatin1 {
mark
/EncodingVector 256 array def
 EncodingVector 0

ISOLatin1Encoding 0 255 getinterval putinterval
EncodingVector 45 /hyphen put

% Set up ISO Latin 1 character encoding
/starnetISO {
        dup dup findfont dup length dict begin
        { 1 index /FID ne { def }{ pop pop } ifelse
        } forall
        /Encoding EncodingVector def
        currentdict end definefont
} def
/Times-Roman starnetISO def
/Times-Italic starnetISO def
/Times-Bold starnetISO def
/Times-BoldItalic starnetISO def
/Helvetica starnetISO def
/Helvetica-Oblique starnetISO def
/Helvetica-Bold starnetISO def
/Helvetica-BoldOblique starnetISO def
/Courier starnetISO def
/Courier-Oblique starnetISO def
/Courier-Bold starnetISO def
/Courier-BoldOblique starnetISO def
cleartomark
} bind def

%%BeginResource: procset graphviz 0 0
/coord-font-family /Times-Roman def
/default-font-family /Times-Roman def
/coordfont coord-font-family findfont 8 scalefont def

/InvScaleFactor 1.0 def
/set_scale {
	dup 1 exch div /InvScaleFactor exch def
	dup scale
} bind def

% styles
/solid { [] 0 setdash } bind def
/dashed { [9 InvScaleFactor mul dup ] 0 setdash } bind def
/dotted { [1 InvScaleFactor mul 6 InvScaleFactor mul] 0 setdash } bind def
/invis {/fill {newpath} def /stroke {newpath} def /show {pop newpath} def} bind def
/bold { 2 setlinewidth } bind def
/filled { } bind def
/unfilled { } bind def
/rounded { } bind def
/diagonals { } bind def

% hooks for setting color 
/nodecolor { sethsbcolor } bind def
/edgecolor { sethsbcolor } bind def
/graphcolor { sethsbcolor } bind def
/nopcolor {pop pop pop} bind def

/beginpage {	% i j npages
	/npages exch def
	/j exch def
	/i exch def
	/str 10 string def
	npages 1 gt {
		gsave
			coordfont setfont
			0 0 moveto
			(\() show i str cvs show (,) show j str cvs show (\)) show
		grestore
	} if
} bind def

/set_font {
	findfont exch
	scalefont setfont
} def

% draw aligned label in bounding box aligned to current point
/alignedtext {			% width adj text
	/text exch def
	/adj exch def
	/width exch def
	gsave
		width 0 gt {
			text stringwidth pop adj mul 0 rmoveto
		} if
		[] 0 setdash
		text show
	grestore
} def

/boxprim {				% xcorner ycorner xsize ysize
		4 2 roll
		moveto
		2 copy
		exch 0 rlineto
		0 exch rlineto
		pop neg 0 rlineto
		closepath
} bind def

/ellipse_path {
	/ry exch def
	/rx exch def
	/y exch def
	/x exch def
	matrix currentmatrix
	newpath
	x y translate
	rx ry scale
	0 0 1 0 360 arc
	setmatrix
} bind def

/endpage { showpage } bind def
/showpage { } def

/layercolorseq
	[	% layer color sequence - darkest to lightest
		[0 0 0]
		[.2 .8 .8]
		[.4 .8 .8]
		[.6 .8 .8]
		[.8 .8 .8]
	]
def

/layerlen layercolorseq length def

/setlayer {/maxlayer exch def /curlayer exch def
	layercolorseq curlayer 1 sub layerlen mod get
	aload pop sethsbcolor
	/nodecolor {nopcolor} def
	/edgecolor {nopcolor} def
	/graphcolor {nopcolor} def
} bind def

/onlayer { curlayer ne {invis} if } def

/onlayers {
	/myupper exch def
	/mylower exch def
	curlayer mylower lt
	curlayer myupper gt
	or
	{invis} if
} def

/curlayer 0 def

%%EndResource
%%EndProlog
%%BeginSetup
14 default-font-family set_font
1 setmiterlimit
% /arrowlength 10 def
% /arrowwidth 5 def

% make sure pdfmark is harmless for PS-interpreters other than Distiller
/pdfmark where {pop} {userdict /pdfmark /cleartomark load put} ifelse
% make '<<' and '>>' safe on PS Level 1 devices
/languagelevel where {pop languagelevel}{1} ifelse
2 lt {
    userdict (<<) cvn ([) cvn load put
    userdict (>>) cvn ([) cvn load put
} if

%%EndSetup
%%Page: 1 1
%%PageBoundingBox: 5 5 252 900
%%PageOrientation: Portrait
gsave
0 0 257 905 boxprim clip newpath
5 5 translate
0 0 1 beginpage
1.0000 set_scale
0 0 translate 0 rotate
0.000 0.000 0.000 graphcolor
10.00 /FreeSans.ttf set_font
% Node1
gsave 10 dict begin
filled
0.000 0.000 0.749 nodecolor
newpath 1 437 moveto
42 437 lineto
42 457 lineto
1 457 lineto
closepath
fill
0.000 0.000 0.000 nodecolor
newpath 1 437 moveto
42 437 lineto
42 457 lineto
1 457 lineto
closepath
stroke
gsave 10 dict begin
8 444 moveto
(main)
[9.6 6 2.88 6.24]
xshow
end grestore
end grestore
% Node2
[ /Rect [ 117 874 207 894 ]
  /Border [ 0 0 0 ]
  /Action << /Subtype /URI /URI ($functions_8h.html#088c749981b7a47a3ece2cb5eee7ad07) >>
  /Subtype /Link
/ANN pdfmark
gsave 10 dict begin
filled
0.000 0.000 1.000 nodecolor
newpath 117 874 moveto
208 874 lineto
208 894 lineto
117 894 lineto
closepath
fill
0.000 0.000 0.000 nodecolor
newpath 117 874 moveto
208 874 lineto
208 894 lineto
117 894 lineto
closepath
stroke
gsave 10 dict begin
124 881 moveto
(calcGammaNM)
[5.52 6 2.88 5.52 7.44 6 9.6 9.6 6 7.44 8.4]
xshow
end grestore
end grestore
% Node1->Node2
gsave 10 dict begin
solid
0.667 0.776 0.439 edgecolor
newpath 22 457 moveto
26 518 50 833 78 865 curveto
86 873 96 878 107 881 curveto
stroke
gsave 10 dict begin
solid
1 setlinewidth
0.667 0.776 0.439 edgecolor
newpath 107 884 moveto
117 883 lineto
108 878 lineto
closepath
fill
0.667 0.776 0.439 edgecolor
newpath 107 884 moveto
117 883 lineto
108 878 lineto
closepath
stroke
end grestore
end grestore
% Node3
[ /Rect [ 127 836 197 856 ]
  /Border [ 0 0 0 ]
  /Action << /Subtype /URI /URI ($functions_8h.html#0285b5a502b8bb296317d961d5405e84) >>
  /Subtype /Link
/ANN pdfmark
gsave 10 dict begin
filled
0.000 0.000 1.000 nodecolor
newpath 127 836 moveto
198 836 lineto
198 856 lineto
127 856 lineto
closepath
fill
0.000 0.000 0.000 nodecolor
newpath 127 836 moveto
198 836 lineto
198 856 lineto
127 856 lineto
closepath
stroke
gsave 10 dict begin
134 843 moveto
(calcGreens)
[5.52 6 2.88 5.52 7.44 3.84 6 6 6.24 5.04]
xshow
end grestore
end grestore
% Node1->Node3
gsave 10 dict begin
solid
0.667 0.776 0.439 edgecolor
newpath 22 457 moveto
27 514 52 798 78 827 curveto
88 837 103 843 117 845 curveto
stroke
gsave 10 dict begin
solid
1 setlinewidth
0.667 0.776 0.439 edgecolor
newpath 117 848 moveto
127 847 lineto
118 842 lineto
closepath
fill
0.667 0.776 0.439 edgecolor
newpath 117 848 moveto
127 847 lineto
118 842 lineto
closepath
stroke
end grestore
end grestore
% Node4
[ /Rect [ 102 798 222 818 ]
  /Border [ 0 0 0 ]
  /Action << /Subtype /URI /URI ($functions_8h.html#7a20bb7229e497c7ff8dda262c6417dc) >>
  /Subtype /Link
/ANN pdfmark
gsave 10 dict begin
filled
0.000 0.000 1.000 nodecolor
newpath 102 798 moveto
223 798 lineto
223 818 lineto
102 818 lineto
closepath
fill
0.000 0.000 0.000 nodecolor
newpath 102 798 moveto
223 798 lineto
223 818 lineto
102 818 lineto
closepath
stroke
gsave 10 dict begin
109 805 moveto
(calcInverseResolvent)
[5.52 6 2.88 5.52 2.88 6.24 5.76 6 4.08 5.04 6 6.24 6 5.04 6 2.88 5.76 6 6.24 3.84]
xshow
end grestore
end grestore
% Node1->Node4
gsave 10 dict begin
solid
0.667 0.776 0.439 edgecolor
newpath 21 457 moveto
23 509 32 738 78 789 curveto
82 793 87 797 93 799 curveto
stroke
gsave 10 dict begin
solid
1 setlinewidth
0.667 0.776 0.439 edgecolor
newpath 91 802 moveto
102 803 lineto
94 796 lineto
closepath
fill
0.667 0.776 0.439 edgecolor
newpath 91 802 moveto
102 803 lineto
94 796 lineto
closepath
stroke
end grestore
end grestore
% Node5
[ /Rect [ 108 760 216 780 ]
  /Border [ 0 0 0 ]
  /Action << /Subtype /URI /URI ($functions_8h.html#8a11e023ebf4f08040d5bb09d24742bf) >>
  /Subtype /Link
/ANN pdfmark
gsave 10 dict begin
filled
0.000 0.000 1.000 nodecolor
newpath 108 760 moveto
217 760 lineto
217 780 lineto
108 780 lineto
closepath
fill
0.000 0.000 0.000 nodecolor
newpath 108 760 moveto
217 760 lineto
217 780 lineto
108 780 lineto
closepath
stroke
gsave 10 dict begin
115 767 moveto
(calcOmegaCurrent)
[5.52 6 2.88 5.52 7.44 9.6 6 6.24 6 6.72 6.24 3.84 3.84 6 6.24 3.84]
xshow
end grestore
end grestore
% Node1->Node5
gsave 10 dict begin
solid
0.667 0.776 0.439 edgecolor
newpath 21 457 moveto
24 505 37 707 78 751 curveto
84 757 91 761 98 764 curveto
stroke
gsave 10 dict begin
solid
1 setlinewidth
0.667 0.776 0.439 edgecolor
newpath 97 767 moveto
108 767 lineto
99 761 lineto
closepath
fill
0.667 0.776 0.439 edgecolor
newpath 97 767 moveto
108 767 lineto
99 761 lineto
closepath
stroke
end grestore
end grestore
% Node6
[ /Rect [ 107 722 217 742 ]
  /Border [ 0 0 0 ]
  /Action << /Subtype /URI /URI ($functions_8h.html#a98619028578e5a191238247c3a90002) >>
  /Subtype /Link
/ANN pdfmark
gsave 10 dict begin
filled
0.000 0.000 1.000 nodecolor
newpath 107 722 moveto
217 722 lineto
217 742 lineto
107 742 lineto
closepath
fill
0.000 0.000 0.000 nodecolor
newpath 107 722 moveto
217 722 lineto
217 742 lineto
107 742 lineto
closepath
stroke
gsave 10 dict begin
115 729 moveto
(calcOmegaDomain)
[5.52 6 2.88 5.52 7.44 9.6 6 6.24 6 7.44 6 9.6 6 2.88 6.24]
xshow
end grestore
end grestore
% Node1->Node6
gsave 10 dict begin
solid
0.667 0.776 0.439 edgecolor
newpath 22 457 moveto
25 502 41 676 78 713 curveto
84 719 90 723 97 726 curveto
stroke
gsave 10 dict begin
solid
1 setlinewidth
0.667 0.776 0.439 edgecolor
newpath 96 729 moveto
107 729 lineto
98 723 lineto
closepath
fill
0.667 0.776 0.439 edgecolor
newpath 96 729 moveto
107 729 lineto
98 723 lineto
closepath
stroke
end grestore
end grestore
% Node7
[ /Rect [ 104 684 220 704 ]
  /Border [ 0 0 0 ]
  /Action << /Subtype /URI /URI ($functions_8h.html#a478ef19e64748d35eb6a612a07f5671) >>
  /Subtype /Link
/ANN pdfmark
gsave 10 dict begin
filled
0.000 0.000 1.000 nodecolor
newpath 104 684 moveto
220 684 lineto
220 704 lineto
104 704 lineto
closepath
fill
0.000 0.000 0.000 nodecolor
newpath 104 684 moveto
220 684 lineto
220 704 lineto
104 704 lineto
closepath
stroke
gsave 10 dict begin
112 691 moveto
(calcOmegaGammas)
[5.52 6 2.88 5.52 7.44 9.6 6 6.24 6 7.44 6 9.6 9.6 6 5.04]
xshow
end grestore
end grestore
% Node1->Node7
gsave 10 dict begin
solid
0.667 0.776 0.439 edgecolor
newpath 22 457 moveto
27 497 46 643 78 675 curveto
83 680 88 683 95 686 curveto
stroke
gsave 10 dict begin
solid
1 setlinewidth
0.667 0.776 0.439 edgecolor
newpath 93 689 moveto
104 689 lineto
96 683 lineto
closepath
fill
0.667 0.776 0.439 edgecolor
newpath 93 689 moveto
104 689 lineto
96 683 lineto
closepath
stroke
end grestore
end grestore
% Node8
[ /Rect [ 115 646 209 666 ]
  /Border [ 0 0 0 ]
  /Action << /Subtype /URI /URI ($functions_8h.html#e7d749e5c2eed51238b9829d32118150) >>
  /Subtype /Link
/ANN pdfmark
gsave 10 dict begin
filled
0.000 0.000 1.000 nodecolor
newpath 115 646 moveto
210 646 lineto
210 666 lineto
115 666 lineto
closepath
fill
0.000 0.000 0.000 nodecolor
newpath 115 646 moveto
210 646 lineto
210 666 lineto
115 666 lineto
closepath
stroke
gsave 10 dict begin
122 653 moveto
(calcOmegaPops)
[5.52 6 2.88 5.52 7.44 9.6 6 6.24 6 5.52 6 6.24 5.04]
xshow
end grestore
end grestore
% Node1->Node8
gsave 10 dict begin
solid
0.667 0.776 0.439 edgecolor
newpath 23 457 moveto
29 492 51 611 78 637 curveto
86 644 95 648 105 651 curveto
stroke
gsave 10 dict begin
solid
1 setlinewidth
0.667 0.776 0.439 edgecolor
newpath 104 654 moveto
115 654 lineto
106 648 lineto
closepath
fill
0.667 0.776 0.439 edgecolor
newpath 104 654 moveto
115 654 lineto
106 648 lineto
closepath
stroke
end grestore
end grestore
% Node9
[ /Rect [ 95 608 229 628 ]
  /Border [ 0 0 0 ]
  /Action << /Subtype /URI /URI ($functions_8h.html#70cbc182c79ef12a4a4a3848f38c0baf) >>
  /Subtype /Link
/ANN pdfmark
gsave 10 dict begin
filled
0.000 0.000 1.000 nodecolor
newpath 95 608 moveto
230 608 lineto
230 628 lineto
95 628 lineto
closepath
fill
0.000 0.000 0.000 nodecolor
newpath 95 608 moveto
230 608 lineto
230 628 lineto
95 628 lineto
closepath
stroke
gsave 10 dict begin
102 615 moveto
(calcOmegaTransmission)
[5.52 6 2.88 5.52 7.44 9.6 6 6.24 6 4.56 4.08 6 6.24 5.04 9.6 2.88 5.04 5.04 2.88 6 6.24]
xshow
end grestore
end grestore
% Node1->Node9
gsave 10 dict begin
solid
0.667 0.776 0.439 edgecolor
newpath 22 457 moveto
24 485 34 560 78 599 curveto
80 601 83 603 86 605 curveto
stroke
gsave 10 dict begin
solid
1 setlinewidth
0.667 0.776 0.439 edgecolor
newpath 84 608 moveto
95 609 lineto
87 602 lineto
closepath
fill
0.667 0.776 0.439 edgecolor
newpath 84 608 moveto
95 609 lineto
87 602 lineto
closepath
stroke
end grestore
end grestore
% Node10
[ /Rect [ 109 570 215 590 ]
  /Border [ 0 0 0 ]
  /Action << /Subtype /URI /URI ($functions_8h.html#95e7bdc963db2c9bb808e0006fbd47ec) >>
  /Subtype /Link
/ANN pdfmark
gsave 10 dict begin
filled
0.000 0.000 1.000 nodecolor
newpath 109 570 moveto
216 570 lineto
216 590 lineto
109 590 lineto
closepath
fill
0.000 0.000 0.000 nodecolor
newpath 109 570 moveto
216 570 lineto
216 590 lineto
109 590 lineto
closepath
stroke
gsave 10 dict begin
116 577 moveto
(calcRigidBodyDOF)
[5.52 6 2.88 5.52 6.72 2.88 6.24 2.88 6.24 6.72 6 6.24 5.76 7.44 7.44 5.52]
xshow
end grestore
end grestore
% Node1->Node10
gsave 10 dict begin
solid
0.667 0.776 0.439 edgecolor
newpath 23 457 moveto
28 479 44 534 78 561 curveto
84 566 92 569 99 572 curveto
stroke
gsave 10 dict begin
solid
1 setlinewidth
0.667 0.776 0.439 edgecolor
newpath 98 575 moveto
109 575 lineto
100 569 lineto
closepath
fill
0.667 0.776 0.439 edgecolor
newpath 98 575 moveto
109 575 lineto
100 569 lineto
closepath
stroke
end grestore
end grestore
% Node11
[ /Rect [ 125 532 199 552 ]
  /Border [ 0 0 0 ]
  /Action << /Subtype /URI /URI ($functions_8h.html#c8ba0f67b1944c162264c7d2ddd261da) >>
  /Subtype /Link
/ANN pdfmark
gsave 10 dict begin
filled
0.000 0.000 1.000 nodecolor
newpath 125 532 moveto
200 532 lineto
200 552 lineto
125 552 lineto
closepath
fill
0.000 0.000 0.000 nodecolor
newpath 125 532 moveto
200 532 lineto
200 552 lineto
125 552 lineto
closepath
stroke
gsave 10 dict begin
132 539 moveto
(calcSqDelta)
[5.52 6 2.88 5.52 6.24 6.24 7.44 6 2.88 3.84 6]
xshow
end grestore
end grestore
% Node1->Node11
gsave 10 dict begin
solid
0.667 0.776 0.439 edgecolor
newpath 26 457 moveto
34 474 53 506 78 523 curveto
89 530 102 534 115 537 curveto
stroke
gsave 10 dict begin
solid
1 setlinewidth
0.667 0.776 0.439 edgecolor
newpath 115 540 moveto
125 539 lineto
116 534 lineto
closepath
fill
0.667 0.776 0.439 edgecolor
newpath 115 540 moveto
125 539 lineto
116 534 lineto
closepath
stroke
end grestore
end grestore
% Node12
[ /Rect [ 130 494 194 514 ]
  /Border [ 0 0 0 ]
  /Action << /Subtype /URI /URI ($group__groupInput.html#g91711341e294098ab0bf086637199c55) >>
  /Subtype /Link
/ANN pdfmark
gsave 10 dict begin
filled
0.000 0.000 1.000 nodecolor
newpath 130 494 moveto
195 494 lineto
195 514 lineto
130 514 lineto
closepath
fill
0.000 0.000 0.000 nodecolor
newpath 130 494 moveto
195 494 lineto
195 514 lineto
130 514 lineto
closepath
stroke
gsave 10 dict begin
137 501 moveto
(chkIOfiles)
[5.52 6.24 5.76 2.88 7.44 3.36 2.88 2.88 6 5.04]
xshow
end grestore
end grestore
% Node1->Node12
gsave 10 dict begin
solid
0.667 0.776 0.439 edgecolor
newpath 34 457 moveto
45 466 62 477 78 485 curveto
92 491 106 495 120 497 curveto
stroke
gsave 10 dict begin
solid
1 setlinewidth
0.667 0.776 0.439 edgecolor
newpath 120 500 moveto
130 499 lineto
121 494 lineto
closepath
fill
0.667 0.776 0.439 edgecolor
newpath 120 500 moveto
130 499 lineto
121 494 lineto
closepath
stroke
end grestore
end grestore
% Node13
[ /Rect [ 120 456 204 476 ]
  /Border [ 0 0 0 ]
  /Action << /Subtype /URI /URI ($functions_8h.html#b66b2c3945111dc84928c7090fcc7fbd) >>
  /Subtype /Link
/ANN pdfmark
gsave 10 dict begin
filled
0.000 0.000 1.000 nodecolor
newpath 120 456 moveto
204 456 lineto
204 476 lineto
120 476 lineto
closepath
fill
0.000 0.000 0.000 nodecolor
newpath 120 456 moveto
204 456 lineto
204 476 lineto
120 476 lineto
closepath
stroke
gsave 10 dict begin
128 463 moveto
(doAvgCurrent)
[6.24 6 6.24 5.76 6.24 6.72 6.24 3.84 3.84 6 6.24 3.84]
xshow
end grestore
end grestore
% Node1->Node13
gsave 10 dict begin
solid
0.667 0.776 0.439 edgecolor
newpath 42 450 moveto
59 453 86 456 110 459 curveto
stroke
gsave 10 dict begin
solid
1 setlinewidth
0.667 0.776 0.439 edgecolor
newpath 110 462 moveto
120 460 lineto
110 456 lineto
closepath
fill
0.667 0.776 0.439 edgecolor
newpath 110 462 moveto
120 460 lineto
110 456 lineto
closepath
stroke
end grestore
end grestore
% Node14
[ /Rect [ 131 418 193 438 ]
  /Border [ 0 0 0 ]
  /Action << /Subtype /URI /URI ($functions_8h.html#e40cad9b51aae68f2d2b949de0820a1b) >>
  /Subtype /Link
/ANN pdfmark
gsave 10 dict begin
filled
0.000 1.000 1.000 nodecolor
0.000 0.000 1.000 nodecolor
newpath 131 418 moveto
194 418 lineto
194 438 lineto
131 438 lineto
closepath
fill
0.000 1.000 1.000 nodecolor
newpath 131 418 moveto
194 418 lineto
194 438 lineto
131 438 lineto
closepath
stroke
gsave 10 dict begin
0.000 0.000 0.000 nodecolor
138 425 moveto
(doOutput)
[6.24 6 7.44 6.24 3.84 6.24 6.24 3.84]
xshow
end grestore
end grestore
% Node1->Node14
gsave 10 dict begin
solid
0.667 0.776 0.439 edgecolor
newpath 42 444 moveto
62 441 95 437 121 433 curveto
stroke
gsave 10 dict begin
solid
1 setlinewidth
0.667 0.776 0.439 edgecolor
newpath 121 436 moveto
131 432 lineto
121 430 lineto
closepath
fill
0.667 0.776 0.439 edgecolor
newpath 121 436 moveto
131 432 lineto
121 430 lineto
closepath
stroke
end grestore
end grestore
% Node16
[ /Rect [ 85 380 239 400 ]
  /Border [ 0 0 0 ]
  /Action << /Subtype /URI /URI ($functions_8h.html#afa7b4de79533180366a3e316ab75ef4) >>
  /Subtype /Link
/ANN pdfmark
gsave 10 dict begin
filled
0.000 0.000 1.000 nodecolor
newpath 85 380 moveto
240 380 lineto
240 400 lineto
85 400 lineto
closepath
fill
0.000 0.000 0.000 nodecolor
newpath 85 380 moveto
240 380 lineto
240 400 lineto
85 400 lineto
closepath
stroke
gsave 10 dict begin
92 387 moveto
(freeUpHeap_ProductionOnly)
[3.36 3.84 6 6 7.2 6.24 7.44 6 6 6.24 5.04 5.52 3.84 6 6.24 6.24 5.52 3.84 2.88 6 6.24 7.44 6.24 2.88 5.76]
xshow
end grestore
end grestore
% Node1->Node16
gsave 10 dict begin
solid
0.667 0.776 0.439 edgecolor
newpath 34 437 moveto
45 428 62 416 78 409 curveto
83 407 88 404 94 403 curveto
stroke
gsave 10 dict begin
solid
1 setlinewidth
0.667 0.776 0.439 edgecolor
newpath 95 406 moveto
104 400 lineto
93 400 lineto
closepath
fill
0.667 0.776 0.439 edgecolor
newpath 95 406 moveto
104 400 lineto
93 400 lineto
closepath
stroke
end grestore
end grestore
% Node17
[ /Rect [ 78 342 246 362 ]
  /Border [ 0 0 0 ]
  /Action << /Subtype /URI /URI ($functions_8h.html#dea432c6585b0d4a90eb5b5d927f952b) >>
  /Subtype /Link
/ANN pdfmark
gsave 10 dict begin
filled
0.000 0.000 1.000 nodecolor
newpath 78 342 moveto
246 342 lineto
246 362 lineto
78 362 lineto
closepath
fill
0.000 0.000 0.000 nodecolor
newpath 78 342 moveto
246 342 lineto
246 362 lineto
78 362 lineto
closepath
stroke
gsave 10 dict begin
86 349 moveto
(freeUpHeap_TestsOrProduction)
[3.36 3.84 6 6 7.2 6.24 7.44 6 6 6.24 5.04 4.32 6 5.04 3.84 5.04 7.44 4.08 5.52 3.84 6 6.24 6.24 5.52 3.84 2.88 6 6.24]
xshow
end grestore
end grestore
% Node1->Node17
gsave 10 dict begin
solid
0.667 0.776 0.439 edgecolor
newpath 26 437 moveto
34 420 52 387 78 371 curveto
81 369 84 367 87 366 curveto
stroke
gsave 10 dict begin
solid
1 setlinewidth
0.667 0.776 0.439 edgecolor
newpath 88 369 moveto
96 362 lineto
85 363 lineto
closepath
fill
0.667 0.776 0.439 edgecolor
newpath 88 369 moveto
96 362 lineto
85 363 lineto
closepath
stroke
end grestore
end grestore
% Node18
[ /Rect [ 123 304 201 324 ]
  /Border [ 0 0 0 ]
  /Action << /Subtype /URI /URI ($functions_8h.html#dd50cfe94b943de4fc854564d4c4f68a) >>
  /Subtype /Link
/ANN pdfmark
gsave 10 dict begin
filled
0.000 0.000 1.000 nodecolor
newpath 123 304 moveto
201 304 lineto
201 324 lineto
123 324 lineto
closepath
fill
0.000 0.000 0.000 nodecolor
newpath 123 304 moveto
201 304 lineto
201 324 lineto
123 324 lineto
closepath
stroke
gsave 10 dict begin
131 311 moveto
(isResonance)
[2.88 5.04 6.24 6 5.04 6 6.24 6 6.24 5.52 6]
xshow
end grestore
end grestore
% Node1->Node18
gsave 10 dict begin
solid
0.667 0.776 0.439 edgecolor
newpath 23 437 moveto
28 414 44 360 78 333 curveto
88 325 101 320 113 318 curveto
stroke
gsave 10 dict begin
solid
1 setlinewidth
0.667 0.776 0.439 edgecolor
newpath 114 321 moveto
123 316 lineto
113 315 lineto
closepath
fill
0.667 0.776 0.439 edgecolor
newpath 114 321 moveto
123 316 lineto
113 315 lineto
closepath
stroke
end grestore
end grestore
% Node19
[ /Rect [ 95 266 229 286 ]
  /Border [ 0 0 0 ]
  /Action << /Subtype /URI /URI ($functions_8h.html#bcbac13a8516e2cb0c1cc0083455c55c) >>
  /Subtype /Link
/ANN pdfmark
gsave 10 dict begin
filled
0.000 0.000 1.000 nodecolor
newpath 95 266 moveto
230 266 lineto
230 286 lineto
95 286 lineto
closepath
fill
0.000 0.000 0.000 nodecolor
newpath 95 266 moveto
230 266 lineto
230 286 lineto
95 286 lineto
closepath
stroke
gsave 10 dict begin
102 273 moveto
(printOmegaCurrent2File)
[6.24 4.08 2.88 6.24 3.84 7.44 9.6 6 6.24 6 6.72 6.24 3.84 3.84 6 6.24 3.84 6.24 4.8 2.88 2.88 6]
xshow
end grestore
end grestore
% Node1->Node19
gsave 10 dict begin
solid
0.667 0.776 0.439 edgecolor
newpath 22 437 moveto
24 409 34 333 78 295 curveto
80 293 83 291 86 289 curveto
stroke
gsave 10 dict begin
solid
1 setlinewidth
0.667 0.776 0.439 edgecolor
newpath 88 292 moveto
95 284 lineto
85 286 lineto
closepath
fill
0.667 0.776 0.439 edgecolor
newpath 88 292 moveto
95 284 lineto
85 286 lineto
closepath
stroke
end grestore
end grestore
% Node20
[ /Rect [ 123 228 201 248 ]
  /Border [ 0 0 0 ]
  /Action << /Subtype /URI /URI ($group__groupInput.html#g367b48d9a444f39d4e81b534445213b6) >>
  /Subtype /Link
/ANN pdfmark
gsave 10 dict begin
filled
0.000 0.000 1.000 nodecolor
newpath 123 228 moveto
201 228 lineto
201 248 lineto
123 248 lineto
closepath
fill
0.000 0.000 0.000 nodecolor
newpath 123 228 moveto
201 228 lineto
201 248 lineto
123 248 lineto
closepath
stroke
gsave 10 dict begin
131 235 moveto
(readAtomNo)
[3.84 6 6 6.24 6.48 3.84 6 9.6 7.44 6]
xshow
end grestore
end grestore
% Node1->Node20
gsave 10 dict begin
solid
0.667 0.776 0.439 edgecolor
newpath 23 437 moveto
29 401 51 282 78 257 curveto
87 248 100 242 113 240 curveto
stroke
gsave 10 dict begin
solid
1 setlinewidth
0.667 0.776 0.439 edgecolor
newpath 114 243 moveto
123 238 lineto
113 237 lineto
closepath
fill
0.667 0.776 0.439 edgecolor
newpath 114 243 moveto
123 238 lineto
113 237 lineto
closepath
stroke
end grestore
end grestore
% Node21
[ /Rect [ 132 190 192 210 ]
  /Border [ 0 0 0 ]
  /Action << /Subtype /URI /URI ($functions_8h.html#51794a90f447b375656adf55745ab344) >>
  /Subtype /Link
/ANN pdfmark
gsave 10 dict begin
filled
0.000 0.000 1.000 nodecolor
newpath 132 190 moveto
192 190 lineto
192 210 lineto
132 210 lineto
closepath
fill
0.000 0.000 0.000 nodecolor
newpath 132 190 moveto
192 190 lineto
192 210 lineto
132 210 lineto
closepath
stroke
gsave 10 dict begin
140 197 moveto
(readFreq)
[3.84 6 6 6.24 4.8 3.84 6 6.24]
xshow
end grestore
end grestore
% Node1->Node21
gsave 10 dict begin
solid
0.667 0.776 0.439 edgecolor
newpath 22 437 moveto
27 397 46 250 78 219 curveto
89 208 106 203 122 200 curveto
stroke
gsave 10 dict begin
solid
1 setlinewidth
0.667 0.776 0.439 edgecolor
newpath 122 203 moveto
132 199 lineto
122 197 lineto
closepath
fill
0.667 0.776 0.439 edgecolor
newpath 122 203 moveto
132 199 lineto
122 197 lineto
closepath
stroke
end grestore
end grestore
% Node22
[ /Rect [ 108 152 216 172 ]
  /Border [ 0 0 0 ]
  /Action << /Subtype /URI /URI ($group__groupInput.html#g5527cdd158af1e33d8c2730ddad19cfa) >>
  /Subtype /Link
/ANN pdfmark
gsave 10 dict begin
filled
0.000 0.000 1.000 nodecolor
newpath 108 152 moveto
216 152 lineto
216 172 lineto
108 172 lineto
closepath
fill
0.000 0.000 0.000 nodecolor
newpath 108 152 moveto
216 152 lineto
216 172 lineto
108 172 lineto
closepath
stroke
gsave 10 dict begin
116 159 moveto
(readGammasLocal)
[3.84 6 6 6.24 7.44 6 9.6 9.6 6 5.04 5.28 6 5.52 6 2.88]
xshow
end grestore
end grestore
% Node1->Node22
gsave 10 dict begin
solid
0.667 0.776 0.439 edgecolor
newpath 22 437 moveto
25 392 41 218 78 181 curveto
84 175 91 171 98 168 curveto
stroke
gsave 10 dict begin
solid
1 setlinewidth
0.667 0.776 0.439 edgecolor
newpath 99 171 moveto
108 165 lineto
97 165 lineto
closepath
fill
0.667 0.776 0.439 edgecolor
newpath 99 171 moveto
108 165 lineto
97 165 lineto
closepath
stroke
end grestore
end grestore
% Node23
[ /Rect [ 110 114 214 134 ]
  /Border [ 0 0 0 ]
  /Action << /Subtype /URI /URI ($group__groupInput.html#gba27c1f09dc3407e85fcf7f055b689f0) >>
  /Subtype /Link
/ANN pdfmark
gsave 10 dict begin
filled
0.000 0.000 1.000 nodecolor
newpath 110 114 moveto
215 114 lineto
215 134 lineto
110 134 lineto
closepath
fill
0.000 0.000 0.000 nodecolor
newpath 110 114 moveto
215 114 lineto
215 134 lineto
110 134 lineto
closepath
stroke
gsave 10 dict begin
117 121 moveto
(readOmegaDebye)
[3.84 6 6 6.24 7.44 9.6 6 6.24 6 7.44 6 6.24 5.76 6]
xshow
end grestore
end grestore
% Node1->Node23
gsave 10 dict begin
solid
0.667 0.776 0.439 edgecolor
newpath 21 437 moveto
24 389 37 186 78 143 curveto
85 136 92 132 100 129 curveto
stroke
gsave 10 dict begin
solid
1 setlinewidth
0.667 0.776 0.439 edgecolor
newpath 101 132 moveto
110 126 lineto
99 126 lineto
closepath
fill
0.667 0.776 0.439 edgecolor
newpath 101 132 moveto
110 126 lineto
99 126 lineto
closepath
stroke
end grestore
end grestore
% Node24
[ /Rect [ 127 76 197 96 ]
  /Border [ 0 0 0 ]
  /Action << /Subtype /URI /URI ($functions_8h.html#ee4cf09807c5dc13cebfef3e0e6b8f58) >>
  /Subtype /Link
/ANN pdfmark
gsave 10 dict begin
filled
0.000 0.000 1.000 nodecolor
newpath 127 76 moveto
197 76 lineto
197 96 lineto
127 96 lineto
closepath
fill
0.000 0.000 0.000 nodecolor
newpath 127 76 moveto
197 76 lineto
197 96 lineto
127 96 lineto
closepath
stroke
gsave 10 dict begin
135 83 moveto
(readTemps)
[3.84 6 6 6.24 4.32 6 9.6 6.24 5.04]
xshow
end grestore
end grestore
% Node1->Node24
gsave 10 dict begin
solid
0.667 0.776 0.439 edgecolor
newpath 21 437 moveto
23 385 32 155 78 105 curveto
88 95 103 89 117 87 curveto
stroke
gsave 10 dict begin
solid
1 setlinewidth
0.667 0.776 0.439 edgecolor
newpath 118 90 moveto
127 85 lineto
117 84 lineto
closepath
fill
0.667 0.776 0.439 edgecolor
newpath 118 90 moveto
127 85 lineto
117 84 lineto
closepath
stroke
end grestore
end grestore
% Node25
[ /Rect [ 134 38 190 58 ]
  /Border [ 0 0 0 ]
  /Action << /Subtype /URI /URI ($functions_8h.html#49634620e96ad03354e2145f0343b3ae) >>
  /Subtype /Link
/ANN pdfmark
gsave 10 dict begin
filled
0.000 0.000 1.000 nodecolor
newpath 134 38 moveto
190 38 lineto
190 58 lineto
134 58 lineto
closepath
fill
0.000 0.000 0.000 nodecolor
newpath 134 38 moveto
190 38 lineto
190 58 lineto
134 58 lineto
closepath
stroke
gsave 10 dict begin
142 45 moveto
(readVec)
[3.84 6 6 6.24 6 6 5.52]
xshow
end grestore
end grestore
% Node1->Node25
gsave 10 dict begin
solid
0.667 0.776 0.439 edgecolor
newpath 22 437 moveto
27 379 52 95 78 67 curveto
90 54 107 49 124 47 curveto
stroke
gsave 10 dict begin
solid
1 setlinewidth
0.667 0.776 0.439 edgecolor
newpath 124 50 moveto
134 46 lineto
124 44 lineto
closepath
fill
0.667 0.776 0.439 edgecolor
newpath 124 50 moveto
134 46 lineto
124 44 lineto
closepath
stroke
end grestore
end grestore
% Node26
[ /Rect [ 138 0 186 20 ]
  /Border [ 0 0 0 ]
  /Action << /Subtype /URI /URI ($tests_8h.html#961ae8b89254d794ccbc0a3e2760d2b7) >>
  /Subtype /Link
/ANN pdfmark
gsave 10 dict begin
filled
0.000 1.000 1.000 nodecolor
0.000 0.000 1.000 nodecolor
newpath 138 0 moveto
186 0 lineto
186 20 lineto
138 20 lineto
closepath
fill
0.000 1.000 1.000 nodecolor
newpath 138 0 moveto
186 0 lineto
186 20 lineto
138 20 lineto
closepath
stroke
gsave 10 dict begin
0.000 0.000 0.000 nodecolor
146 7 moveto
(testAll)
[3.84 6 5.04 3.84 6.72 2.88 2.88]
xshow
end grestore
end grestore
% Node1->Node26
gsave 10 dict begin
solid
0.667 0.776 0.439 edgecolor
newpath 22 437 moveto
26 375 50 60 78 29 curveto
90 16 110 11 128 9 curveto
stroke
gsave 10 dict begin
solid
1 setlinewidth
0.667 0.776 0.439 edgecolor
newpath 128 13 moveto
138 9 lineto
128 6 lineto
closepath
fill
0.667 0.776 0.439 edgecolor
newpath 128 13 moveto
138 9 lineto
128 6 lineto
closepath
stroke
end grestore
end grestore
endpage
showpage
grestore
%%PageTrailer
%%EndPage: 1
%%Trailer
%%Pages: 1
end
restore
%%EOF
