%!PS-Adobe-2.0
%%Creator: dot version 2.6 (Tue Nov  4 00:07:08 UTC 2008)
%%For: (inonshar) 
%%Title: G
%%Pages: (atend)
%%BoundingBox: 0 0 455 259
%%EndComments
save
%%BeginProlog
/DotDict 200 dict def
DotDict begin

/setupLatin1 {
mark
/EncodingVector 256 array def
 EncodingVector 0

ISOLatin1Encoding 0 255 getinterval putinterval
EncodingVector 45 /hyphen put

% Set up ISO Latin 1 character encoding
/starnetISO {
        dup dup findfont dup length dict begin
        { 1 index /FID ne { def }{ pop pop } ifelse
        } forall
        /Encoding EncodingVector def
        currentdict end definefont
} def
/Times-Roman starnetISO def
/Times-Italic starnetISO def
/Times-Bold starnetISO def
/Times-BoldItalic starnetISO def
/Helvetica starnetISO def
/Helvetica-Oblique starnetISO def
/Helvetica-Bold starnetISO def
/Helvetica-BoldOblique starnetISO def
/Courier starnetISO def
/Courier-Oblique starnetISO def
/Courier-Bold starnetISO def
/Courier-BoldOblique starnetISO def
cleartomark
} bind def

%%BeginResource: procset graphviz 0 0
/coord-font-family /Times-Roman def
/default-font-family /Times-Roman def
/coordfont coord-font-family findfont 8 scalefont def

/InvScaleFactor 1.0 def
/set_scale {
	dup 1 exch div /InvScaleFactor exch def
	dup scale
} bind def

% styles
/solid { [] 0 setdash } bind def
/dashed { [9 InvScaleFactor mul dup ] 0 setdash } bind def
/dotted { [1 InvScaleFactor mul 6 InvScaleFactor mul] 0 setdash } bind def
/invis {/fill {newpath} def /stroke {newpath} def /show {pop newpath} def} bind def
/bold { 2 setlinewidth } bind def
/filled { } bind def
/unfilled { } bind def
/rounded { } bind def
/diagonals { } bind def

% hooks for setting color 
/nodecolor { sethsbcolor } bind def
/edgecolor { sethsbcolor } bind def
/graphcolor { sethsbcolor } bind def
/nopcolor {pop pop pop} bind def

/beginpage {	% i j npages
	/npages exch def
	/j exch def
	/i exch def
	/str 10 string def
	npages 1 gt {
		gsave
			coordfont setfont
			0 0 moveto
			(\() show i str cvs show (,) show j str cvs show (\)) show
		grestore
	} if
} bind def

/set_font {
	findfont exch
	scalefont setfont
} def

% draw aligned label in bounding box aligned to current point
/alignedtext {			% width adj text
	/text exch def
	/adj exch def
	/width exch def
	gsave
		width 0 gt {
			text stringwidth pop adj mul 0 rmoveto
		} if
		[] 0 setdash
		text show
	grestore
} def

/boxprim {				% xcorner ycorner xsize ysize
		4 2 roll
		moveto
		2 copy
		exch 0 rlineto
		0 exch rlineto
		pop neg 0 rlineto
		closepath
} bind def

/ellipse_path {
	/ry exch def
	/rx exch def
	/y exch def
	/x exch def
	matrix currentmatrix
	newpath
	x y translate
	rx ry scale
	0 0 1 0 360 arc
	setmatrix
} bind def

/endpage { showpage } bind def
/showpage { } def

/layercolorseq
	[	% layer color sequence - darkest to lightest
		[0 0 0]
		[.2 .8 .8]
		[.4 .8 .8]
		[.6 .8 .8]
		[.8 .8 .8]
	]
def

/layerlen layercolorseq length def

/setlayer {/maxlayer exch def /curlayer exch def
	layercolorseq curlayer 1 sub layerlen mod get
	aload pop sethsbcolor
	/nodecolor {nopcolor} def
	/edgecolor {nopcolor} def
	/graphcolor {nopcolor} def
} bind def

/onlayer { curlayer ne {invis} if } def

/onlayers {
	/myupper exch def
	/mylower exch def
	curlayer mylower lt
	curlayer myupper gt
	or
	{invis} if
} def

/curlayer 0 def

%%EndResource
%%EndProlog
%%BeginSetup
14 default-font-family set_font
1 setmiterlimit
% /arrowlength 10 def
% /arrowwidth 5 def

% make sure pdfmark is harmless for PS-interpreters other than Distiller
/pdfmark where {pop} {userdict /pdfmark /cleartomark load put} ifelse
% make '<<' and '>>' safe on PS Level 1 devices
/languagelevel where {pop languagelevel}{1} ifelse
2 lt {
    userdict (<<) cvn ([) cvn load put
    userdict (>>) cvn ([) cvn load put
} if

%%EndSetup
%%Page: 1 1
%%PageBoundingBox: 5 5 450 254
%%PageOrientation: Portrait
gsave
0 0 455 259 boxprim clip newpath
5 5 translate
0 0 1 beginpage
1.0000 set_scale
0 0 translate 0 rotate
0.000 0.000 0.000 graphcolor
10.00 /FreeSans.ttf set_font
% Node1
gsave 10 dict begin
filled
0.000 0.000 0.749 nodecolor
newpath 0 152 moveto
144 152 lineto
144 172 lineto
0 172 lineto
closepath
fill
0.000 0.000 0.000 nodecolor
newpath 0 152 moveto
144 152 lineto
144 172 lineto
0 172 lineto
closepath
stroke
gsave 10 dict begin
8 159 moveto
(LandauerHeatCurrent.cpp)
[5.52 6 6.24 6.24 6 6.24 6 4.08 7.44 6 6 3.84 6.72 6.24 3.84 3.84 6 6.24 3.84 2.88 5.52 6.24 6.24]
xshow
end grestore
end grestore
% Node2
gsave 10 dict begin
filled
0.000 0.000 0.749 nodecolor
0.000 0.000 1.000 nodecolor
newpath 181 171 moveto
229 171 lineto
229 191 lineto
181 191 lineto
closepath
fill
0.000 0.000 0.749 nodecolor
newpath 181 171 moveto
229 171 lineto
229 191 lineto
181 191 lineto
closepath
stroke
gsave 10 dict begin
0.000 0.000 0.000 nodecolor
189 178 moveto
(time.h)
[3.84 2.88 9.6 6 2.88 6.24]
xshow
end grestore
end grestore
% Node1->Node2
gsave 10 dict begin
solid
0.667 0.776 0.439 edgecolor
newpath 142 172 moveto
152 173 162 175 171 176 curveto
stroke
gsave 10 dict begin
solid
1 setlinewidth
0.667 0.776 0.439 edgecolor
newpath 171 179 moveto
181 178 lineto
172 173 lineto
closepath
fill
0.667 0.776 0.439 edgecolor
newpath 171 179 moveto
181 178 lineto
172 173 lineto
closepath
stroke
end grestore
end grestore
% Node3
[ /Rect [ 180 133 230 153 ]
  /Border [ 0 0 0 ]
  /Action << /Subtype /URI /URI ($tests_8h.html) >>
  /Subtype /Link
/ANN pdfmark
gsave 10 dict begin
filled
0.000 0.000 1.000 nodecolor
newpath 180 133 moveto
230 133 lineto
230 153 lineto
180 153 lineto
closepath
fill
0.000 0.000 0.000 nodecolor
newpath 180 133 moveto
230 133 lineto
230 153 lineto
180 153 lineto
closepath
stroke
gsave 10 dict begin
188 140 moveto
(tests.h)
[3.84 6 5.04 3.84 5.04 2.88 6.24]
xshow
end grestore
end grestore
% Node1->Node3
gsave 10 dict begin
solid
0.667 0.776 0.439 edgecolor
newpath 142 152 moveto
151 151 161 149 170 148 curveto
stroke
gsave 10 dict begin
solid
1 setlinewidth
0.667 0.776 0.439 edgecolor
newpath 171 151 moveto
180 146 lineto
170 145 lineto
closepath
fill
0.667 0.776 0.439 edgecolor
newpath 171 151 moveto
180 146 lineto
170 145 lineto
closepath
stroke
end grestore
end grestore
% Node4
gsave 10 dict begin
filled
0.000 0.000 0.749 nodecolor
0.000 0.000 1.000 nodecolor
newpath 278 152 moveto
326 152 lineto
326 172 lineto
278 172 lineto
closepath
fill
0.000 0.000 0.749 nodecolor
newpath 278 152 moveto
326 152 lineto
326 172 lineto
278 172 lineto
closepath
stroke
gsave 10 dict begin
0.000 0.000 0.000 nodecolor
286 159 moveto
(vector)
[5.76 6 5.52 3.84 6 4.08]
xshow
end grestore
end grestore
% Node3->Node4
gsave 10 dict begin
solid
0.667 0.776 0.439 edgecolor
newpath 230 148 moveto
242 150 255 153 268 155 curveto
stroke
gsave 10 dict begin
solid
1 setlinewidth
0.667 0.776 0.439 edgecolor
newpath 268 158 moveto
278 157 lineto
269 152 lineto
closepath
fill
0.667 0.776 0.439 edgecolor
newpath 268 158 moveto
278 157 lineto
269 152 lineto
closepath
stroke
end grestore
end grestore
% Node5
[ /Rect [ 267 114 337 134 ]
  /Border [ 0 0 0 ]
  /Action << /Subtype /URI /URI ($functions_8h.html) >>
  /Subtype /Link
/ANN pdfmark
gsave 10 dict begin
filled
0.000 0.000 1.000 nodecolor
newpath 267 114 moveto
338 114 lineto
338 134 lineto
267 134 lineto
closepath
fill
0.000 0.000 0.000 nodecolor
newpath 267 114 moveto
338 114 lineto
338 134 lineto
267 134 lineto
closepath
stroke
gsave 10 dict begin
274 121 moveto
(functions.h)
[3.36 6.24 6.24 5.52 3.84 2.88 6 6.24 5.04 2.88 6.24]
xshow
end grestore
end grestore
% Node3->Node5
gsave 10 dict begin
solid
0.667 0.776 0.439 edgecolor
newpath 230 138 moveto
238 137 248 135 257 133 curveto
stroke
gsave 10 dict begin
solid
1 setlinewidth
0.667 0.776 0.439 edgecolor
newpath 258 136 moveto
267 131 lineto
257 130 lineto
closepath
fill
0.667 0.776 0.439 edgecolor
newpath 258 136 moveto
267 131 lineto
257 130 lineto
closepath
stroke
end grestore
end grestore
% Node6
gsave 10 dict begin
filled
0.000 0.000 0.749 nodecolor
0.000 0.000 1.000 nodecolor
newpath 379 228 moveto
439 228 lineto
439 248 lineto
379 248 lineto
closepath
fill
0.000 0.000 0.749 nodecolor
newpath 379 228 moveto
439 228 lineto
439 248 lineto
379 248 lineto
closepath
stroke
gsave 10 dict begin
0.000 0.000 0.000 nodecolor
387 235 moveto
(iostream)
[2.88 6 5.04 3.84 3.84 6 6 9.6]
xshow
end grestore
end grestore
% Node5->Node6
gsave 10 dict begin
solid
0.667 0.776 0.439 edgecolor
newpath 327 134 moveto
331 137 335 140 338 143 curveto
364 169 349 191 374 219 curveto
375 220 376 221 378 222 curveto
stroke
gsave 10 dict begin
solid
1 setlinewidth
0.667 0.776 0.439 edgecolor
newpath 376 225 moveto
386 228 lineto
380 219 lineto
closepath
fill
0.667 0.776 0.439 edgecolor
newpath 376 225 moveto
386 228 lineto
380 219 lineto
closepath
stroke
end grestore
end grestore
% Node7
gsave 10 dict begin
filled
0.000 0.000 0.749 nodecolor
0.000 0.000 1.000 nodecolor
newpath 382 190 moveto
436 190 lineto
436 210 lineto
382 210 lineto
closepath
fill
0.000 0.000 0.749 nodecolor
newpath 382 190 moveto
436 190 lineto
436 210 lineto
382 210 lineto
closepath
stroke
gsave 10 dict begin
0.000 0.000 0.000 nodecolor
390 197 moveto
(fstream)
[3.36 5.04 3.84 3.84 6 6 9.6]
xshow
end grestore
end grestore
% Node5->Node7
gsave 10 dict begin
solid
0.667 0.776 0.439 edgecolor
newpath 324 134 moveto
329 137 334 140 338 143 curveto
357 157 356 166 374 181 curveto
376 182 378 183 380 185 curveto
stroke
gsave 10 dict begin
solid
1 setlinewidth
0.667 0.776 0.439 edgecolor
newpath 379 188 moveto
389 190 lineto
382 182 lineto
closepath
fill
0.667 0.776 0.439 edgecolor
newpath 379 188 moveto
389 190 lineto
382 182 lineto
closepath
stroke
end grestore
end grestore
% Node8
gsave 10 dict begin
filled
0.000 0.000 0.749 nodecolor
0.000 0.000 1.000 nodecolor
newpath 385 152 moveto
434 152 lineto
434 172 lineto
385 172 lineto
closepath
fill
0.000 0.000 0.749 nodecolor
newpath 385 152 moveto
434 152 lineto
434 172 lineto
385 172 lineto
closepath
stroke
gsave 10 dict begin
0.000 0.000 0.000 nodecolor
392 159 moveto
(cstdlib)
[5.52 5.04 3.84 6.24 2.88 2.88 6.24]
xshow
end grestore
end grestore
% Node5->Node8
gsave 10 dict begin
solid
0.667 0.776 0.439 edgecolor
newpath 330 134 moveto
344 139 361 144 375 150 curveto
stroke
gsave 10 dict begin
solid
1 setlinewidth
0.667 0.776 0.439 edgecolor
newpath 374 153 moveto
385 153 lineto
376 147 lineto
closepath
fill
0.667 0.776 0.439 edgecolor
newpath 374 153 moveto
385 153 lineto
376 147 lineto
closepath
stroke
end grestore
end grestore
% Node9
gsave 10 dict begin
filled
0.000 0.000 0.749 nodecolor
0.000 0.000 1.000 nodecolor
newpath 385 114 moveto
433 114 lineto
433 134 lineto
385 134 lineto
closepath
fill
0.000 0.000 0.749 nodecolor
newpath 385 114 moveto
433 114 lineto
433 134 lineto
385 134 lineto
closepath
stroke
gsave 10 dict begin
0.000 0.000 0.000 nodecolor
393 121 moveto
(cmath)
[5.52 9.6 6 3.84 6.24]
xshow
end grestore
end grestore
% Node5->Node9
gsave 10 dict begin
solid
0.667 0.776 0.439 edgecolor
newpath 338 124 moveto
350 124 363 124 375 124 curveto
stroke
gsave 10 dict begin
solid
1 setlinewidth
0.667 0.776 0.439 edgecolor
newpath 375 128 moveto
385 124 lineto
375 121 lineto
closepath
fill
0.667 0.776 0.439 edgecolor
newpath 375 128 moveto
385 124 lineto
375 121 lineto
closepath
stroke
end grestore
end grestore
% Node10
gsave 10 dict begin
filled
0.000 0.000 0.749 nodecolor
0.000 0.000 1.000 nodecolor
newpath 374 76 moveto
444 76 lineto
444 96 lineto
374 96 lineto
closepath
fill
0.000 0.000 0.749 nodecolor
newpath 374 76 moveto
444 76 lineto
444 96 lineto
374 96 lineto
closepath
stroke
gsave 10 dict begin
0.000 0.000 0.000 nodecolor
382 83 moveto
(Eigen/Core)
[6.24 2.88 6.24 6 6.24 3.36 6.72 6 3.84 6]
xshow
end grestore
end grestore
% Node5->Node10
gsave 10 dict begin
solid
0.667 0.776 0.439 edgecolor
newpath 330 114 moveto
343 110 358 105 371 100 curveto
stroke
gsave 10 dict begin
solid
1 setlinewidth
0.667 0.776 0.439 edgecolor
newpath 373 103 moveto
381 96 lineto
370 96 lineto
closepath
fill
0.667 0.776 0.439 edgecolor
newpath 373 103 moveto
381 96 lineto
370 96 lineto
closepath
stroke
end grestore
end grestore
% Node11
gsave 10 dict begin
filled
0.000 0.000 0.749 nodecolor
0.000 0.000 1.000 nodecolor
newpath 379 38 moveto
439 38 lineto
439 58 lineto
379 58 lineto
closepath
fill
0.000 0.000 0.749 nodecolor
newpath 379 38 moveto
439 38 lineto
439 58 lineto
379 58 lineto
closepath
stroke
gsave 10 dict begin
0.000 0.000 0.000 nodecolor
387 45 moveto
(Eigen/LU)
[6.24 2.88 6.24 6 6.24 3.36 5.04 7.2]
xshow
end grestore
end grestore
% Node5->Node11
gsave 10 dict begin
solid
0.667 0.776 0.439 edgecolor
newpath 313 114 moveto
327 102 351 82 374 67 curveto
376 66 378 65 380 63 curveto
stroke
gsave 10 dict begin
solid
1 setlinewidth
0.667 0.776 0.439 edgecolor
newpath 382 66 moveto
389 58 lineto
379 60 lineto
closepath
fill
0.667 0.776 0.439 edgecolor
newpath 382 66 moveto
389 58 lineto
379 60 lineto
closepath
stroke
end grestore
end grestore
% Node12
gsave 10 dict begin
filled
0.000 0.000 0.749 nodecolor
0.000 0.000 1.000 nodecolor
newpath 387 0 moveto
431 0 lineto
431 20 lineto
387 20 lineto
closepath
fill
0.000 0.000 0.749 nodecolor
newpath 387 0 moveto
431 0 lineto
431 20 lineto
387 20 lineto
closepath
stroke
gsave 10 dict begin
0.000 0.000 0.000 nodecolor
395 7 moveto
(limits)
[2.88 2.88 9.6 2.88 3.84 5.04]
xshow
end grestore
end grestore
% Node5->Node12
gsave 10 dict begin
solid
0.667 0.776 0.439 edgecolor
newpath 308 114 moveto
318 95 344 55 374 29 curveto
375 28 377 27 379 26 curveto
stroke
gsave 10 dict begin
solid
1 setlinewidth
0.667 0.776 0.439 edgecolor
newpath 381 29 moveto
387 20 lineto
377 23 lineto
closepath
fill
0.667 0.776 0.439 edgecolor
newpath 381 29 moveto
387 20 lineto
377 23 lineto
closepath
stroke
end grestore
end grestore
endpage
showpage
grestore
%%PageTrailer
%%EndPage: 1
%%Trailer
%%Pages: 1
end
restore
%%EOF
