\relax 
\@writefile{toc}{\contentsline {section}{\numberline {7.2}Find\discretionary {-}{}{}Max\discretionary {-}{}{}Transmission Namespace Reference}{16}{section.7.2}}
\newlabel{namespaceFindMaxTransmission}{{7.2}{16}{Find\-Max\-Transmission Namespace Reference\relax }{section.7.2}{}}
\@writefile{toc}{\contentsline {subsection}{\numberline {7.2.1}Variable Documentation}{16}{subsection.7.2.1}}
\@writefile{toc}{\contentsline {subsubsection}{\numberline {7.2.1.1}inputFileName}{16}{subsubsection.7.2.1.1}}
\newlabel{namespaceFindMaxTransmission_ff398d5980b670bf594f81f909c8f990}{{7.2.1.1}{16}{inputFileName\relax }{subsubsection.7.2.1.1}{}}
\@writefile{toc}{\contentsline {subsubsection}{\numberline {7.2.1.2}transmission}{16}{subsubsection.7.2.1.2}}
\newlabel{namespaceFindMaxTransmission_d7c005da60b4ae3c3c90f1e66beeca9e}{{7.2.1.2}{16}{transmission\relax }{subsubsection.7.2.1.2}{}}
\@writefile{toc}{\contentsline {subsubsection}{\numberline {7.2.1.3}maxTrans}{16}{subsubsection.7.2.1.3}}
\newlabel{namespaceFindMaxTransmission_c0c640534e4ba366a9abae1759cfa6db}{{7.2.1.3}{16}{maxTrans\relax }{subsubsection.7.2.1.3}{}}
\@writefile{toc}{\contentsline {subsubsection}{\numberline {7.2.1.4}x}{16}{subsubsection.7.2.1.4}}
\newlabel{namespaceFindMaxTransmission_75e5fe102cdb7496c2fc699137b54399}{{7.2.1.4}{16}{x\relax }{subsubsection.7.2.1.4}{}}
\@writefile{toc}{\contentsline {subsubsection}{\numberline {7.2.1.5}maxTrans}{16}{subsubsection.7.2.1.5}}
\newlabel{namespaceFindMaxTransmission_52acbe8e58644bf93c433daf21d9a82c}{{7.2.1.5}{16}{maxTrans\relax }{subsubsection.7.2.1.5}{}}
\@setckpt{namespaceFindMaxTransmission}{
\setcounter{page}{17}
\setcounter{equation}{0}
\setcounter{enumi}{0}
\setcounter{enumii}{0}
\setcounter{enumiii}{0}
\setcounter{enumiv}{0}
\setcounter{footnote}{0}
\setcounter{mpfootnote}{0}
\setcounter{part}{0}
\setcounter{chapter}{7}
\setcounter{section}{2}
\setcounter{subsection}{1}
\setcounter{subsubsection}{5}
\setcounter{paragraph}{0}
\setcounter{subparagraph}{0}
\setcounter{figure}{0}
\setcounter{table}{0}
\setcounter{float@type}{4}
\setcounter{Item}{0}
\setcounter{Hfootnote}{0}
\setcounter{section@level}{3}
}
