\relax 
\ifx\hyper@anchor\@undefined
\global \let \oldcontentsline\contentsline
\gdef \contentsline#1#2#3#4{\oldcontentsline{#1}{#2}{#3}}
\global \let \oldnewlabel\newlabel
\gdef \newlabel#1#2{\newlabelxx{#1}#2}
\gdef \newlabelxx#1#2#3#4#5#6{\oldnewlabel{#1}{{#2}{#3}}}
\AtEndDocument{\let \contentsline\oldcontentsline
\let \newlabel\oldnewlabel}
\else
\global \let \hyper@last\relax 
\fi

\@writefile{toc}{\contentsline {chapter}{\numberline {1}Program for calculation of the Landauer expression of the heat current }{1}{chapter.1}}
\@writefile{lof}{\addvspace {10\p@ }}
\@writefile{lot}{\addvspace {10\p@ }}
\newlabel{index}{{1}{1}{Program for calculation of the Landauer expression of the heat current \relax }{chapter.1}{}}
\@writefile{toc}{\contentsline {chapter}{\numberline {2}Landauer\discretionary {-}{}{}Heat\discretionary {-}{}{}Current Module Index}{3}{chapter.2}}
\@writefile{lof}{\addvspace {10\p@ }}
\@writefile{lot}{\addvspace {10\p@ }}
\@writefile{toc}{\contentsline {section}{\numberline {2.1}Landauer\discretionary {-}{}{}Heat\discretionary {-}{}{}Current Modules}{3}{section.2.1}}
\@writefile{toc}{\contentsline {chapter}{\numberline {3}Landauer\discretionary {-}{}{}Heat\discretionary {-}{}{}Current Namespace Index}{5}{chapter.3}}
\@writefile{lof}{\addvspace {10\p@ }}
\@writefile{lot}{\addvspace {10\p@ }}
\@writefile{toc}{\contentsline {section}{\numberline {3.1}Landauer\discretionary {-}{}{}Heat\discretionary {-}{}{}Current Namespace List}{5}{section.3.1}}
\@writefile{toc}{\contentsline {chapter}{\numberline {4}Landauer\discretionary {-}{}{}Heat\discretionary {-}{}{}Current File Index}{7}{chapter.4}}
\@writefile{lof}{\addvspace {10\p@ }}
\@writefile{lot}{\addvspace {10\p@ }}
\@writefile{toc}{\contentsline {section}{\numberline {4.1}Landauer\discretionary {-}{}{}Heat\discretionary {-}{}{}Current File List}{7}{section.4.1}}
\@writefile{toc}{\contentsline {chapter}{\numberline {5}Landauer\discretionary {-}{}{}Heat\discretionary {-}{}{}Current Page Index}{9}{chapter.5}}
\@writefile{lof}{\addvspace {10\p@ }}
\@writefile{lot}{\addvspace {10\p@ }}
\@writefile{toc}{\contentsline {section}{\numberline {5.1}Landauer\discretionary {-}{}{}Heat\discretionary {-}{}{}Current Related Pages}{9}{section.5.1}}
\@writefile{toc}{\contentsline {chapter}{\numberline {6}Landauer\discretionary {-}{}{}Heat\discretionary {-}{}{}Current Module Documentation}{11}{chapter.6}}
\@writefile{lof}{\addvspace {10\p@ }}
\@writefile{lot}{\addvspace {10\p@ }}
\@writefile{toc}{\contentsline {section}{\numberline {6.1}Functions dealing with initial input.}{11}{section.6.1}}
\newlabel{group__groupInput}{{6.1}{11}{Functions dealing with initial input}{section.6.1}{}}
\@writefile{toc}{\contentsline {subsection}{\numberline {6.1.1}Function Documentation}{12}{subsection.6.1.1}}
\@writefile{toc}{\contentsline {subsubsection}{\numberline {6.1.1.1}chkIOfiles}{12}{subsubsection.6.1.1.1}}
\newlabel{group__groupInput_g91711341e294098ab0bf086637199c55}{{6.1.1.1}{12}{chkIOfiles\relax }{subsubsection.6.1.1.1}{}}
\@writefile{toc}{\contentsline {subsubsection}{\numberline {6.1.1.2}readAtomNo}{12}{subsubsection.6.1.1.2}}
\newlabel{group__groupInput_g367b48d9a444f39d4e81b534445213b6}{{6.1.1.2}{12}{readAtomNo\relax }{subsubsection.6.1.1.2}{}}
\@writefile{toc}{\contentsline {subsubsection}{\numberline {6.1.1.3}readGammasLocal}{13}{subsubsection.6.1.1.3}}
\newlabel{group__groupInput_g5527cdd158af1e33d8c2730ddad19cfa}{{6.1.1.3}{13}{readGammasLocal\relax }{subsubsection.6.1.1.3}{}}
\@writefile{toc}{\contentsline {subsubsection}{\numberline {6.1.1.4}readOmegaDebye}{13}{subsubsection.6.1.1.4}}
\newlabel{group__groupInput_gba27c1f09dc3407e85fcf7f055b689f0}{{6.1.1.4}{13}{readOmegaDebye\relax }{subsubsection.6.1.1.4}{}}
\@writefile{toc}{\contentsline {chapter}{\numberline {7}Landauer\discretionary {-}{}{}Heat\discretionary {-}{}{}Current Namespace Documentation}{15}{chapter.7}}
\@writefile{lof}{\addvspace {10\p@ }}
\@writefile{lot}{\addvspace {10\p@ }}
\@writefile{toc}{\contentsline {section}{\numberline {7.1}Eigen Namespace Reference}{15}{section.7.1}}
\newlabel{namespaceEigen}{{7.1}{15}{Eigen Namespace Reference\relax }{section.7.1}{}}
\@input{namespaceFindMaxTransmission.aux}
\@input{namespacestd.aux}
\@writefile{toc}{\contentsline {chapter}{\numberline {8}Landauer\discretionary {-}{}{}Heat\discretionary {-}{}{}Current File Documentation}{19}{chapter.8}}
\@writefile{lof}{\addvspace {10\p@ }}
\@writefile{lot}{\addvspace {10\p@ }}
\@writefile{toc}{\contentsline {section}{\numberline {8.1}Find\discretionary {-}{}{}Max\discretionary {-}{}{}Transmission.py File Reference}{19}{section.8.1}}
\newlabel{FindMaxTransmission_8py}{{8.1}{19}{Find\-Max\-Transmission.py File Reference\relax }{section.8.1}{}}
\@input{functions_8h.aux}
\@input{LandauerHeatCurrent_8cpp.aux}
\@input{tests_8h.aux}
\@writefile{toc}{\contentsline {chapter}{\numberline {9}Landauer\discretionary {-}{}{}Heat\discretionary {-}{}{}Current Page Documentation}{45}{chapter.9}}
\@writefile{lof}{\addvspace {10\p@ }}
\@writefile{lot}{\addvspace {10\p@ }}
\@writefile{toc}{\contentsline {section}{\numberline {9.1}Todo List}{45}{section.9.1}}
\newlabel{todo}{{9.1}{45}{Todo List\relax }{section.9.1}{}}
\newlabel{todo__todo000001}{{9.1}{45}{Todo List\relax }{section.9.1}{}}
\newlabel{todo__todo000002}{{9.1}{45}{Todo List\relax }{section.9.1}{}}
\@input{bug.aux}
