%!PS-Adobe-2.0
%%Creator: dot version 2.6 (Tue Nov  4 00:07:08 UTC 2008)
%%For: (inonshar) 
%%Title: G
%%Pages: (atend)
%%BoundingBox: 0 0 715 145
%%EndComments
save
%%BeginProlog
/DotDict 200 dict def
DotDict begin

/setupLatin1 {
mark
/EncodingVector 256 array def
 EncodingVector 0

ISOLatin1Encoding 0 255 getinterval putinterval
EncodingVector 45 /hyphen put

% Set up ISO Latin 1 character encoding
/starnetISO {
        dup dup findfont dup length dict begin
        { 1 index /FID ne { def }{ pop pop } ifelse
        } forall
        /Encoding EncodingVector def
        currentdict end definefont
} def
/Times-Roman starnetISO def
/Times-Italic starnetISO def
/Times-Bold starnetISO def
/Times-BoldItalic starnetISO def
/Helvetica starnetISO def
/Helvetica-Oblique starnetISO def
/Helvetica-Bold starnetISO def
/Helvetica-BoldOblique starnetISO def
/Courier starnetISO def
/Courier-Oblique starnetISO def
/Courier-Bold starnetISO def
/Courier-BoldOblique starnetISO def
cleartomark
} bind def

%%BeginResource: procset graphviz 0 0
/coord-font-family /Times-Roman def
/default-font-family /Times-Roman def
/coordfont coord-font-family findfont 8 scalefont def

/InvScaleFactor 1.0 def
/set_scale {
	dup 1 exch div /InvScaleFactor exch def
	dup scale
} bind def

% styles
/solid { [] 0 setdash } bind def
/dashed { [9 InvScaleFactor mul dup ] 0 setdash } bind def
/dotted { [1 InvScaleFactor mul 6 InvScaleFactor mul] 0 setdash } bind def
/invis {/fill {newpath} def /stroke {newpath} def /show {pop newpath} def} bind def
/bold { 2 setlinewidth } bind def
/filled { } bind def
/unfilled { } bind def
/rounded { } bind def
/diagonals { } bind def

% hooks for setting color 
/nodecolor { sethsbcolor } bind def
/edgecolor { sethsbcolor } bind def
/graphcolor { sethsbcolor } bind def
/nopcolor {pop pop pop} bind def

/beginpage {	% i j npages
	/npages exch def
	/j exch def
	/i exch def
	/str 10 string def
	npages 1 gt {
		gsave
			coordfont setfont
			0 0 moveto
			(\() show i str cvs show (,) show j str cvs show (\)) show
		grestore
	} if
} bind def

/set_font {
	findfont exch
	scalefont setfont
} def

% draw aligned label in bounding box aligned to current point
/alignedtext {			% width adj text
	/text exch def
	/adj exch def
	/width exch def
	gsave
		width 0 gt {
			text stringwidth pop adj mul 0 rmoveto
		} if
		[] 0 setdash
		text show
	grestore
} def

/boxprim {				% xcorner ycorner xsize ysize
		4 2 roll
		moveto
		2 copy
		exch 0 rlineto
		0 exch rlineto
		pop neg 0 rlineto
		closepath
} bind def

/ellipse_path {
	/ry exch def
	/rx exch def
	/y exch def
	/x exch def
	matrix currentmatrix
	newpath
	x y translate
	rx ry scale
	0 0 1 0 360 arc
	setmatrix
} bind def

/endpage { showpage } bind def
/showpage { } def

/layercolorseq
	[	% layer color sequence - darkest to lightest
		[0 0 0]
		[.2 .8 .8]
		[.4 .8 .8]
		[.6 .8 .8]
		[.8 .8 .8]
	]
def

/layerlen layercolorseq length def

/setlayer {/maxlayer exch def /curlayer exch def
	layercolorseq curlayer 1 sub layerlen mod get
	aload pop sethsbcolor
	/nodecolor {nopcolor} def
	/edgecolor {nopcolor} def
	/graphcolor {nopcolor} def
} bind def

/onlayer { curlayer ne {invis} if } def

/onlayers {
	/myupper exch def
	/mylower exch def
	curlayer mylower lt
	curlayer myupper gt
	or
	{invis} if
} def

/curlayer 0 def

%%EndResource
%%EndProlog
%%BeginSetup
14 default-font-family set_font
1 setmiterlimit
% /arrowlength 10 def
% /arrowwidth 5 def

% make sure pdfmark is harmless for PS-interpreters other than Distiller
/pdfmark where {pop} {userdict /pdfmark /cleartomark load put} ifelse
% make '<<' and '>>' safe on PS Level 1 devices
/languagelevel where {pop languagelevel}{1} ifelse
2 lt {
    userdict (<<) cvn ([) cvn load put
    userdict (>>) cvn ([) cvn load put
} if

%%EndSetup
%%Page: 1 1
%%PageBoundingBox: 5 5 710 140
%%PageOrientation: Portrait
gsave
0 0 715 145 boxprim clip newpath
5 5 translate
0 0 1 beginpage
1.0000 set_scale
0 0 translate 0 rotate
0.000 0.000 0.000 graphcolor
10.00 /FreeSans.ttf set_font
% Node1
gsave 10 dict begin
filled
0.000 0.000 0.749 nodecolor
newpath 0 57 moveto
300 57 lineto
300 77 lineto
0 77 lineto
closepath
fill
0.000 0.000 0.000 nodecolor
newpath 0 57 moveto
300 57 lineto
300 77 lineto
0 77 lineto
closepath
stroke
gsave 10 dict begin
8 64 moveto
(testCalcTransmissionTriatomicDiagonalPartOfFullGammas)
[3.84 6 5.04 3.84 6.72 6 2.88 5.52 4.56 4.08 6 6.24 5.04 9.6 2.88 5.04 5.04 2.88 6 6.24 4.56 4.08 2.88 6 3.84 6 9.6 2.88 5.52 7.44 2.88 6 6.24 6 6.24 6 2.88 5.28 6 4.08 3.84 7.44 3.36 5.04 6.24 2.88 2.88 7.44 6 9.6 9.6 6 5.04]
xshow
end grestore
end grestore
% Node2
[ /Rect [ 336 57 532 77 ]
  /Border [ 0 0 0 ]
  /Action << /Subtype /URI /URI ($tests_8h.html#d9ef107587aaf25831c21bdb2e606798) >>
  /Subtype /Link
/ANN pdfmark
gsave 10 dict begin
filled
0.000 0.000 1.000 nodecolor
newpath 336 57 moveto
532 57 lineto
532 77 lineto
336 77 lineto
closepath
fill
0.000 0.000 0.000 nodecolor
newpath 336 57 moveto
532 57 lineto
532 77 lineto
336 77 lineto
closepath
stroke
gsave 10 dict begin
344 64 moveto
(doCalcTransmissionFromNMgammas)
[6.24 6 6.72 6 2.88 5.52 4.56 4.08 6 6.24 5.04 9.6 2.88 5.04 5.04 2.88 6 6.24 4.8 3.84 6 9.6 7.44 8.4 6.24 6 9.6 9.6 6 5.04]
xshow
end grestore
end grestore
% Node1->Node2
gsave 10 dict begin
solid
0.667 0.776 0.439 edgecolor
newpath 300 67 moveto
309 67 317 67 326 67 curveto
stroke
gsave 10 dict begin
solid
1 setlinewidth
0.667 0.776 0.439 edgecolor
newpath 326 71 moveto
336 67 lineto
326 64 lineto
closepath
fill
0.667 0.776 0.439 edgecolor
newpath 326 71 moveto
336 67 lineto
326 64 lineto
closepath
stroke
end grestore
end grestore
% Node3
[ /Rect [ 601 114 671 134 ]
  /Border [ 0 0 0 ]
  /Action << /Subtype /URI /URI ($functions_8h.html#0285b5a502b8bb296317d961d5405e84) >>
  /Subtype /Link
/ANN pdfmark
gsave 10 dict begin
filled
0.000 0.000 1.000 nodecolor
newpath 601 114 moveto
672 114 lineto
672 134 lineto
601 134 lineto
closepath
fill
0.000 0.000 0.000 nodecolor
newpath 601 114 moveto
672 114 lineto
672 134 lineto
601 134 lineto
closepath
stroke
gsave 10 dict begin
608 121 moveto
(calcGreens)
[5.52 6 2.88 5.52 7.44 3.84 6 6 6.24 5.04]
xshow
end grestore
end grestore
% Node2->Node3
gsave 10 dict begin
solid
0.667 0.776 0.439 edgecolor
newpath 470 77 moveto
497 85 535 95 568 105 curveto
576 107 584 109 591 111 curveto
stroke
gsave 10 dict begin
solid
1 setlinewidth
0.667 0.776 0.439 edgecolor
newpath 590 114 moveto
601 114 lineto
592 108 lineto
closepath
fill
0.667 0.776 0.439 edgecolor
newpath 590 114 moveto
601 114 lineto
592 108 lineto
closepath
stroke
end grestore
end grestore
% Node4
[ /Rect [ 576 76 696 96 ]
  /Border [ 0 0 0 ]
  /Action << /Subtype /URI /URI ($functions_8h.html#7a20bb7229e497c7ff8dda262c6417dc) >>
  /Subtype /Link
/ANN pdfmark
gsave 10 dict begin
filled
0.000 0.000 1.000 nodecolor
newpath 576 76 moveto
697 76 lineto
697 96 lineto
576 96 lineto
closepath
fill
0.000 0.000 0.000 nodecolor
newpath 576 76 moveto
697 76 lineto
697 96 lineto
576 96 lineto
closepath
stroke
gsave 10 dict begin
583 83 moveto
(calcInverseResolvent)
[5.52 6 2.88 5.52 2.88 6.24 5.76 6 4.08 5.04 6 6.24 6 5.04 6 2.88 5.76 6 6.24 3.84]
xshow
end grestore
end grestore
% Node2->Node4
gsave 10 dict begin
solid
0.667 0.776 0.439 edgecolor
newpath 532 76 moveto
543 77 555 78 566 79 curveto
stroke
gsave 10 dict begin
solid
1 setlinewidth
0.667 0.776 0.439 edgecolor
newpath 566 82 moveto
576 80 lineto
566 76 lineto
closepath
fill
0.667 0.776 0.439 edgecolor
newpath 566 82 moveto
576 80 lineto
566 76 lineto
closepath
stroke
end grestore
end grestore
% Node5
[ /Rect [ 569 38 703 58 ]
  /Border [ 0 0 0 ]
  /Action << /Subtype /URI /URI ($functions_8h.html#70cbc182c79ef12a4a4a3848f38c0baf) >>
  /Subtype /Link
/ANN pdfmark
gsave 10 dict begin
filled
0.000 0.000 1.000 nodecolor
newpath 569 38 moveto
704 38 lineto
704 58 lineto
569 58 lineto
closepath
fill
0.000 0.000 0.000 nodecolor
newpath 569 38 moveto
704 38 lineto
704 58 lineto
569 58 lineto
closepath
stroke
gsave 10 dict begin
576 45 moveto
(calcOmegaTransmission)
[5.52 6 2.88 5.52 7.44 9.6 6 6.24 6 4.56 4.08 6 6.24 5.04 9.6 2.88 5.04 5.04 2.88 6 6.24]
xshow
end grestore
end grestore
% Node2->Node5
gsave 10 dict begin
solid
0.667 0.776 0.439 edgecolor
newpath 532 58 moveto
541 57 550 57 559 55 curveto
stroke
gsave 10 dict begin
solid
1 setlinewidth
0.667 0.776 0.439 edgecolor
newpath 559 58 moveto
569 54 lineto
559 52 lineto
closepath
fill
0.667 0.776 0.439 edgecolor
newpath 559 58 moveto
569 54 lineto
559 52 lineto
closepath
stroke
end grestore
end grestore
% Node6
[ /Rect [ 599 0 673 20 ]
  /Border [ 0 0 0 ]
  /Action << /Subtype /URI /URI ($functions_8h.html#c8ba0f67b1944c162264c7d2ddd261da) >>
  /Subtype /Link
/ANN pdfmark
gsave 10 dict begin
filled
0.000 0.000 1.000 nodecolor
newpath 599 0 moveto
674 0 lineto
674 20 lineto
599 20 lineto
closepath
fill
0.000 0.000 0.000 nodecolor
newpath 599 0 moveto
674 0 lineto
674 20 lineto
599 20 lineto
closepath
stroke
gsave 10 dict begin
606 7 moveto
(calcSqDelta)
[5.52 6 2.88 5.52 6.24 6.24 7.44 6 2.88 3.84 6]
xshow
end grestore
end grestore
% Node2->Node6
gsave 10 dict begin
solid
0.667 0.776 0.439 edgecolor
newpath 469 57 moveto
496 49 534 38 568 29 curveto
575 27 583 25 590 23 curveto
stroke
gsave 10 dict begin
solid
1 setlinewidth
0.667 0.776 0.439 edgecolor
newpath 591 26 moveto
600 20 lineto
589 20 lineto
closepath
fill
0.667 0.776 0.439 edgecolor
newpath 591 26 moveto
600 20 lineto
589 20 lineto
closepath
stroke
end grestore
end grestore
endpage
showpage
grestore
%%PageTrailer
%%EndPage: 1
%%Trailer
%%Pages: 1
end
restore
%%EOF
