\relax 
\@writefile{toc}{\contentsline {section}{\numberline {8.4}tests.h File Reference}{36}{section.8.4}}
\newlabel{tests_8h}{{8.4}{36}{tests.h File Reference\relax }{section.8.4}{}}
\@writefile{toc}{\contentsline {subsection}{\numberline {8.4.1}Function Documentation}{37}{subsection.8.4.1}}
\@writefile{toc}{\contentsline {subsubsection}{\numberline {8.4.1.1}doCalcTransmissionFromNMgammas}{37}{subsubsection.8.4.1.1}}
\newlabel{tests_8h_d9ef107587aaf25831c21bdb2e606798}{{8.4.1.1}{37}{doCalcTransmissionFromNMgammas\relax }{subsubsection.8.4.1.1}{}}
\@writefile{toc}{\contentsline {subsubsection}{\numberline {8.4.1.2}testAll}{37}{subsubsection.8.4.1.2}}
\newlabel{tests_8h_961ae8b89254d794ccbc0a3e2760d2b7}{{8.4.1.2}{37}{testAll\relax }{subsubsection.8.4.1.2}{}}
\@writefile{toc}{\contentsline {subsubsection}{\numberline {8.4.1.3}testCalcAvgCurrent}{38}{subsubsection.8.4.1.3}}
\newlabel{tests_8h_925b86458a8147011c9978eed3c2f2ed}{{8.4.1.3}{38}{testCalcAvgCurrent\relax }{subsubsection.8.4.1.3}{}}
\@writefile{toc}{\contentsline {subsubsection}{\numberline {8.4.1.4}testCalcGammaNM}{38}{subsubsection.8.4.1.4}}
\newlabel{tests_8h_7e0b8ed3592e8eb259951d712a36a759}{{8.4.1.4}{38}{testCalcGammaNM\relax }{subsubsection.8.4.1.4}{}}
\@writefile{toc}{\contentsline {subsubsection}{\numberline {8.4.1.5}testCalcGreens}{38}{subsubsection.8.4.1.5}}
\newlabel{tests_8h_0410fee5f7afe79fe2a66ed26f2ea68e}{{8.4.1.5}{38}{testCalcGreens\relax }{subsubsection.8.4.1.5}{}}
\@writefile{toc}{\contentsline {subsubsection}{\numberline {8.4.1.6}testCalcInverseResolvent}{39}{subsubsection.8.4.1.6}}
\newlabel{tests_8h_01c1cd4b798b4ecab8f27eb44df07670}{{8.4.1.6}{39}{testCalcInverseResolvent\relax }{subsubsection.8.4.1.6}{}}
\@writefile{toc}{\contentsline {subsubsection}{\numberline {8.4.1.7}testCalcOmegaCurrent}{39}{subsubsection.8.4.1.7}}
\newlabel{tests_8h_3984b5eecbed18ef66e70b1830dd8f0f}{{8.4.1.7}{39}{testCalcOmegaCurrent\relax }{subsubsection.8.4.1.7}{}}
\@writefile{toc}{\contentsline {subsubsection}{\numberline {8.4.1.8}testCalcOmegaDomain}{39}{subsubsection.8.4.1.8}}
\newlabel{tests_8h_8e0c2f3c9a243c527792331b0416fba4}{{8.4.1.8}{39}{testCalcOmegaDomain\relax }{subsubsection.8.4.1.8}{}}
\@writefile{toc}{\contentsline {subsubsection}{\numberline {8.4.1.9}testCalcOmegaGammas}{39}{subsubsection.8.4.1.9}}
\newlabel{tests_8h_e47741e0dfad1631b57d15de3a99ae76}{{8.4.1.9}{39}{testCalcOmegaGammas\relax }{subsubsection.8.4.1.9}{}}
\@writefile{toc}{\contentsline {subsubsection}{\numberline {8.4.1.10}testCalcOmegaPops}{39}{subsubsection.8.4.1.10}}
\newlabel{tests_8h_08fd3593131ae6c1fb34d86d842dda6b}{{8.4.1.10}{39}{testCalcOmegaPops\relax }{subsubsection.8.4.1.10}{}}
\@writefile{toc}{\contentsline {subsubsection}{\numberline {8.4.1.11}testCalcRigidBodyDOF}{39}{subsubsection.8.4.1.11}}
\newlabel{tests_8h_354a71502a2dd338dae8d86189305af9}{{8.4.1.11}{39}{testCalcRigidBodyDOF\relax }{subsubsection.8.4.1.11}{}}
\@writefile{toc}{\contentsline {subsubsection}{\numberline {8.4.1.12}testCalcSqDelta}{39}{subsubsection.8.4.1.12}}
\newlabel{tests_8h_43caa4d0a6466c409ce9eaf1bdd96dd3}{{8.4.1.12}{39}{testCalcSqDelta\relax }{subsubsection.8.4.1.12}{}}
\@writefile{toc}{\contentsline {subsubsection}{\numberline {8.4.1.13}testCalcTransmission}{40}{subsubsection.8.4.1.13}}
\newlabel{tests_8h_9688f7d75a3faaecbb7f365ac4b1ecd1}{{8.4.1.13}{40}{testCalcTransmission\relax }{subsubsection.8.4.1.13}{}}
\@writefile{toc}{\contentsline {subsubsection}{\numberline {8.4.1.14}testCalcTransmission2uncoupledDegenerateModes}{40}{subsubsection.8.4.1.14}}
\newlabel{tests_8h_425d300598a605b03faefe638a32fb2d}{{8.4.1.14}{40}{testCalcTransmission2uncoupledDegenerateModes\relax }{subsubsection.8.4.1.14}{}}
\@writefile{toc}{\contentsline {subsubsection}{\numberline {8.4.1.15}testCalcTransmissionDiatomic1D}{40}{subsubsection.8.4.1.15}}
\newlabel{tests_8h_ae13ab233739fb56b788f5e72ad6ae47}{{8.4.1.15}{40}{testCalcTransmissionDiatomic1D\relax }{subsubsection.8.4.1.15}{}}
\@writefile{toc}{\contentsline {subsubsection}{\numberline {8.4.1.16}testCalcTransmissionDiatomicIdentityGammas}{41}{subsubsection.8.4.1.16}}
\newlabel{tests_8h_91e5bab4ea43a342413a4c54d2d4f93b}{{8.4.1.16}{41}{testCalcTransmissionDiatomicIdentityGammas\relax }{subsubsection.8.4.1.16}{}}
\@writefile{toc}{\contentsline {subsubsection}{\numberline {8.4.1.17}testCalcTransmissionGammaOnesDiagonalGreens}{41}{subsubsection.8.4.1.17}}
\newlabel{tests_8h_8d91d7593024da6df40ce08d30e61794}{{8.4.1.17}{41}{testCalcTransmissionGammaOnesDiagonalGreens\relax }{subsubsection.8.4.1.17}{}}
\@writefile{toc}{\contentsline {subsubsection}{\numberline {8.4.1.18}testCalcTransmissionIdentityMatrixesOnly}{42}{subsubsection.8.4.1.18}}
\newlabel{tests_8h_50f065373d4e4f26a5bae7513b0aa1d3}{{8.4.1.18}{42}{testCalcTransmissionIdentityMatrixesOnly\relax }{subsubsection.8.4.1.18}{}}
\@writefile{toc}{\contentsline {subsubsection}{\numberline {8.4.1.19}testCalcTransmissionTriatomic}{42}{subsubsection.8.4.1.19}}
\newlabel{tests_8h_e31361a603224471c71f9739e60c28d4}{{8.4.1.19}{42}{testCalcTransmissionTriatomic\relax }{subsubsection.8.4.1.19}{}}
\@writefile{toc}{\contentsline {subsubsection}{\numberline {8.4.1.20}testCalcTransmissionTriatomicDiagonalPartOfFullGammas}{42}{subsubsection.8.4.1.20}}
\newlabel{tests_8h_61b2fa2a169dcbaeb75585986ac46757}{{8.4.1.20}{42}{testCalcTransmissionTriatomicDiagonalPartOfFullGammas\relax }{subsubsection.8.4.1.20}{}}
\@writefile{toc}{\contentsline {subsubsection}{\numberline {8.4.1.21}testPrintOmegaCurrent2File}{43}{subsubsection.8.4.1.21}}
\newlabel{tests_8h_9c26ac64d4a91101a217b15ea14b2f7d}{{8.4.1.21}{43}{testPrintOmegaCurrent2File\relax }{subsubsection.8.4.1.21}{}}
\@setckpt{tests_8h}{
\setcounter{page}{44}
\setcounter{equation}{0}
\setcounter{enumi}{0}
\setcounter{enumii}{0}
\setcounter{enumiii}{0}
\setcounter{enumiv}{0}
\setcounter{footnote}{0}
\setcounter{mpfootnote}{0}
\setcounter{part}{0}
\setcounter{chapter}{8}
\setcounter{section}{4}
\setcounter{subsection}{1}
\setcounter{subsubsection}{21}
\setcounter{paragraph}{0}
\setcounter{subparagraph}{0}
\setcounter{figure}{0}
\setcounter{table}{0}
\setcounter{float@type}{4}
\setcounter{Item}{0}
\setcounter{Hfootnote}{0}
\setcounter{section@level}{3}
}
