%!PS-Adobe-2.0
%%Creator: dot version 2.6 (Tue Nov  4 00:07:08 UTC 2008)
%%For: (inonshar) 
%%Title: G
%%Pages: (atend)
%%BoundingBox: 0 0 275 259
%%EndComments
save
%%BeginProlog
/DotDict 200 dict def
DotDict begin

/setupLatin1 {
mark
/EncodingVector 256 array def
 EncodingVector 0

ISOLatin1Encoding 0 255 getinterval putinterval
EncodingVector 45 /hyphen put

% Set up ISO Latin 1 character encoding
/starnetISO {
        dup dup findfont dup length dict begin
        { 1 index /FID ne { def }{ pop pop } ifelse
        } forall
        /Encoding EncodingVector def
        currentdict end definefont
} def
/Times-Roman starnetISO def
/Times-Italic starnetISO def
/Times-Bold starnetISO def
/Times-BoldItalic starnetISO def
/Helvetica starnetISO def
/Helvetica-Oblique starnetISO def
/Helvetica-Bold starnetISO def
/Helvetica-BoldOblique starnetISO def
/Courier starnetISO def
/Courier-Oblique starnetISO def
/Courier-Bold starnetISO def
/Courier-BoldOblique starnetISO def
cleartomark
} bind def

%%BeginResource: procset graphviz 0 0
/coord-font-family /Times-Roman def
/default-font-family /Times-Roman def
/coordfont coord-font-family findfont 8 scalefont def

/InvScaleFactor 1.0 def
/set_scale {
	dup 1 exch div /InvScaleFactor exch def
	dup scale
} bind def

% styles
/solid { [] 0 setdash } bind def
/dashed { [9 InvScaleFactor mul dup ] 0 setdash } bind def
/dotted { [1 InvScaleFactor mul 6 InvScaleFactor mul] 0 setdash } bind def
/invis {/fill {newpath} def /stroke {newpath} def /show {pop newpath} def} bind def
/bold { 2 setlinewidth } bind def
/filled { } bind def
/unfilled { } bind def
/rounded { } bind def
/diagonals { } bind def

% hooks for setting color 
/nodecolor { sethsbcolor } bind def
/edgecolor { sethsbcolor } bind def
/graphcolor { sethsbcolor } bind def
/nopcolor {pop pop pop} bind def

/beginpage {	% i j npages
	/npages exch def
	/j exch def
	/i exch def
	/str 10 string def
	npages 1 gt {
		gsave
			coordfont setfont
			0 0 moveto
			(\() show i str cvs show (,) show j str cvs show (\)) show
		grestore
	} if
} bind def

/set_font {
	findfont exch
	scalefont setfont
} def

% draw aligned label in bounding box aligned to current point
/alignedtext {			% width adj text
	/text exch def
	/adj exch def
	/width exch def
	gsave
		width 0 gt {
			text stringwidth pop adj mul 0 rmoveto
		} if
		[] 0 setdash
		text show
	grestore
} def

/boxprim {				% xcorner ycorner xsize ysize
		4 2 roll
		moveto
		2 copy
		exch 0 rlineto
		0 exch rlineto
		pop neg 0 rlineto
		closepath
} bind def

/ellipse_path {
	/ry exch def
	/rx exch def
	/y exch def
	/x exch def
	matrix currentmatrix
	newpath
	x y translate
	rx ry scale
	0 0 1 0 360 arc
	setmatrix
} bind def

/endpage { showpage } bind def
/showpage { } def

/layercolorseq
	[	% layer color sequence - darkest to lightest
		[0 0 0]
		[.2 .8 .8]
		[.4 .8 .8]
		[.6 .8 .8]
		[.8 .8 .8]
	]
def

/layerlen layercolorseq length def

/setlayer {/maxlayer exch def /curlayer exch def
	layercolorseq curlayer 1 sub layerlen mod get
	aload pop sethsbcolor
	/nodecolor {nopcolor} def
	/edgecolor {nopcolor} def
	/graphcolor {nopcolor} def
} bind def

/onlayer { curlayer ne {invis} if } def

/onlayers {
	/myupper exch def
	/mylower exch def
	curlayer mylower lt
	curlayer myupper gt
	or
	{invis} if
} def

/curlayer 0 def

%%EndResource
%%EndProlog
%%BeginSetup
14 default-font-family set_font
1 setmiterlimit
% /arrowlength 10 def
% /arrowwidth 5 def

% make sure pdfmark is harmless for PS-interpreters other than Distiller
/pdfmark where {pop} {userdict /pdfmark /cleartomark load put} ifelse
% make '<<' and '>>' safe on PS Level 1 devices
/languagelevel where {pop languagelevel}{1} ifelse
2 lt {
    userdict (<<) cvn ([) cvn load put
    userdict (>>) cvn ([) cvn load put
} if

%%EndSetup
%%Page: 1 1
%%PageBoundingBox: 5 5 270 254
%%PageOrientation: Portrait
gsave
0 0 275 259 boxprim clip newpath
5 5 translate
0 0 1 beginpage
1.0000 set_scale
0 0 translate 0 rotate
0.000 0.000 0.000 graphcolor
10.00 /FreeSans.ttf set_font
% Node1
gsave 10 dict begin
filled
0.000 0.000 0.749 nodecolor
newpath 0 133 moveto
50 133 lineto
50 153 lineto
0 153 lineto
closepath
fill
0.000 0.000 0.000 nodecolor
newpath 0 133 moveto
50 133 lineto
50 153 lineto
0 153 lineto
closepath
stroke
gsave 10 dict begin
8 140 moveto
(tests.h)
[3.84 6 5.04 3.84 5.04 2.88 6.24]
xshow
end grestore
end grestore
% Node2
gsave 10 dict begin
filled
0.000 0.000 0.749 nodecolor
0.000 0.000 1.000 nodecolor
newpath 98 152 moveto
146 152 lineto
146 172 lineto
98 172 lineto
closepath
fill
0.000 0.000 0.749 nodecolor
newpath 98 152 moveto
146 152 lineto
146 172 lineto
98 172 lineto
closepath
stroke
gsave 10 dict begin
0.000 0.000 0.000 nodecolor
106 159 moveto
(vector)
[5.76 6 5.52 3.84 6 4.08]
xshow
end grestore
end grestore
% Node1->Node2
gsave 10 dict begin
solid
0.667 0.776 0.439 edgecolor
newpath 50 148 moveto
62 150 75 153 88 155 curveto
stroke
gsave 10 dict begin
solid
1 setlinewidth
0.667 0.776 0.439 edgecolor
newpath 88 158 moveto
98 157 lineto
89 152 lineto
closepath
fill
0.667 0.776 0.439 edgecolor
newpath 88 158 moveto
98 157 lineto
89 152 lineto
closepath
stroke
end grestore
end grestore
% Node3
[ /Rect [ 87 114 157 134 ]
  /Border [ 0 0 0 ]
  /Action << /Subtype /URI /URI ($functions_8h.html) >>
  /Subtype /Link
/ANN pdfmark
gsave 10 dict begin
filled
0.000 0.000 1.000 nodecolor
newpath 87 114 moveto
158 114 lineto
158 134 lineto
87 134 lineto
closepath
fill
0.000 0.000 0.000 nodecolor
newpath 87 114 moveto
158 114 lineto
158 134 lineto
87 134 lineto
closepath
stroke
gsave 10 dict begin
94 121 moveto
(functions.h)
[3.36 6.24 6.24 5.52 3.84 2.88 6 6.24 5.04 2.88 6.24]
xshow
end grestore
end grestore
% Node1->Node3
gsave 10 dict begin
solid
0.667 0.776 0.439 edgecolor
newpath 50 138 moveto
58 137 68 135 77 133 curveto
stroke
gsave 10 dict begin
solid
1 setlinewidth
0.667 0.776 0.439 edgecolor
newpath 78 136 moveto
87 131 lineto
77 130 lineto
closepath
fill
0.667 0.776 0.439 edgecolor
newpath 78 136 moveto
87 131 lineto
77 130 lineto
closepath
stroke
end grestore
end grestore
% Node4
gsave 10 dict begin
filled
0.000 0.000 0.749 nodecolor
0.000 0.000 1.000 nodecolor
newpath 199 228 moveto
259 228 lineto
259 248 lineto
199 248 lineto
closepath
fill
0.000 0.000 0.749 nodecolor
newpath 199 228 moveto
259 228 lineto
259 248 lineto
199 248 lineto
closepath
stroke
gsave 10 dict begin
0.000 0.000 0.000 nodecolor
207 235 moveto
(iostream)
[2.88 6 5.04 3.84 3.84 6 6 9.6]
xshow
end grestore
end grestore
% Node3->Node4
gsave 10 dict begin
solid
0.667 0.776 0.439 edgecolor
newpath 147 134 moveto
151 137 155 140 158 143 curveto
184 169 169 191 194 219 curveto
195 220 196 221 198 222 curveto
stroke
gsave 10 dict begin
solid
1 setlinewidth
0.667 0.776 0.439 edgecolor
newpath 196 225 moveto
206 228 lineto
200 219 lineto
closepath
fill
0.667 0.776 0.439 edgecolor
newpath 196 225 moveto
206 228 lineto
200 219 lineto
closepath
stroke
end grestore
end grestore
% Node5
gsave 10 dict begin
filled
0.000 0.000 0.749 nodecolor
0.000 0.000 1.000 nodecolor
newpath 202 190 moveto
256 190 lineto
256 210 lineto
202 210 lineto
closepath
fill
0.000 0.000 0.749 nodecolor
newpath 202 190 moveto
256 190 lineto
256 210 lineto
202 210 lineto
closepath
stroke
gsave 10 dict begin
0.000 0.000 0.000 nodecolor
210 197 moveto
(fstream)
[3.36 5.04 3.84 3.84 6 6 9.6]
xshow
end grestore
end grestore
% Node3->Node5
gsave 10 dict begin
solid
0.667 0.776 0.439 edgecolor
newpath 144 134 moveto
149 137 154 140 158 143 curveto
177 157 176 166 194 181 curveto
196 182 198 183 200 185 curveto
stroke
gsave 10 dict begin
solid
1 setlinewidth
0.667 0.776 0.439 edgecolor
newpath 199 188 moveto
209 190 lineto
202 182 lineto
closepath
fill
0.667 0.776 0.439 edgecolor
newpath 199 188 moveto
209 190 lineto
202 182 lineto
closepath
stroke
end grestore
end grestore
% Node6
gsave 10 dict begin
filled
0.000 0.000 0.749 nodecolor
0.000 0.000 1.000 nodecolor
newpath 205 152 moveto
254 152 lineto
254 172 lineto
205 172 lineto
closepath
fill
0.000 0.000 0.749 nodecolor
newpath 205 152 moveto
254 152 lineto
254 172 lineto
205 172 lineto
closepath
stroke
gsave 10 dict begin
0.000 0.000 0.000 nodecolor
212 159 moveto
(cstdlib)
[5.52 5.04 3.84 6.24 2.88 2.88 6.24]
xshow
end grestore
end grestore
% Node3->Node6
gsave 10 dict begin
solid
0.667 0.776 0.439 edgecolor
newpath 150 134 moveto
164 139 181 144 195 150 curveto
stroke
gsave 10 dict begin
solid
1 setlinewidth
0.667 0.776 0.439 edgecolor
newpath 194 153 moveto
205 153 lineto
196 147 lineto
closepath
fill
0.667 0.776 0.439 edgecolor
newpath 194 153 moveto
205 153 lineto
196 147 lineto
closepath
stroke
end grestore
end grestore
% Node7
gsave 10 dict begin
filled
0.000 0.000 0.749 nodecolor
0.000 0.000 1.000 nodecolor
newpath 205 114 moveto
253 114 lineto
253 134 lineto
205 134 lineto
closepath
fill
0.000 0.000 0.749 nodecolor
newpath 205 114 moveto
253 114 lineto
253 134 lineto
205 134 lineto
closepath
stroke
gsave 10 dict begin
0.000 0.000 0.000 nodecolor
213 121 moveto
(cmath)
[5.52 9.6 6 3.84 6.24]
xshow
end grestore
end grestore
% Node3->Node7
gsave 10 dict begin
solid
0.667 0.776 0.439 edgecolor
newpath 158 124 moveto
170 124 183 124 195 124 curveto
stroke
gsave 10 dict begin
solid
1 setlinewidth
0.667 0.776 0.439 edgecolor
newpath 195 128 moveto
205 124 lineto
195 121 lineto
closepath
fill
0.667 0.776 0.439 edgecolor
newpath 195 128 moveto
205 124 lineto
195 121 lineto
closepath
stroke
end grestore
end grestore
% Node8
gsave 10 dict begin
filled
0.000 0.000 0.749 nodecolor
0.000 0.000 1.000 nodecolor
newpath 194 76 moveto
264 76 lineto
264 96 lineto
194 96 lineto
closepath
fill
0.000 0.000 0.749 nodecolor
newpath 194 76 moveto
264 76 lineto
264 96 lineto
194 96 lineto
closepath
stroke
gsave 10 dict begin
0.000 0.000 0.000 nodecolor
202 83 moveto
(Eigen/Core)
[6.24 2.88 6.24 6 6.24 3.36 6.72 6 3.84 6]
xshow
end grestore
end grestore
% Node3->Node8
gsave 10 dict begin
solid
0.667 0.776 0.439 edgecolor
newpath 150 114 moveto
163 110 178 105 191 100 curveto
stroke
gsave 10 dict begin
solid
1 setlinewidth
0.667 0.776 0.439 edgecolor
newpath 193 103 moveto
201 96 lineto
190 96 lineto
closepath
fill
0.667 0.776 0.439 edgecolor
newpath 193 103 moveto
201 96 lineto
190 96 lineto
closepath
stroke
end grestore
end grestore
% Node9
gsave 10 dict begin
filled
0.000 0.000 0.749 nodecolor
0.000 0.000 1.000 nodecolor
newpath 199 38 moveto
259 38 lineto
259 58 lineto
199 58 lineto
closepath
fill
0.000 0.000 0.749 nodecolor
newpath 199 38 moveto
259 38 lineto
259 58 lineto
199 58 lineto
closepath
stroke
gsave 10 dict begin
0.000 0.000 0.000 nodecolor
207 45 moveto
(Eigen/LU)
[6.24 2.88 6.24 6 6.24 3.36 5.04 7.2]
xshow
end grestore
end grestore
% Node3->Node9
gsave 10 dict begin
solid
0.667 0.776 0.439 edgecolor
newpath 133 114 moveto
147 102 171 82 194 67 curveto
196 66 198 65 200 63 curveto
stroke
gsave 10 dict begin
solid
1 setlinewidth
0.667 0.776 0.439 edgecolor
newpath 202 66 moveto
209 58 lineto
199 60 lineto
closepath
fill
0.667 0.776 0.439 edgecolor
newpath 202 66 moveto
209 58 lineto
199 60 lineto
closepath
stroke
end grestore
end grestore
% Node10
gsave 10 dict begin
filled
0.000 0.000 0.749 nodecolor
0.000 0.000 1.000 nodecolor
newpath 207 0 moveto
251 0 lineto
251 20 lineto
207 20 lineto
closepath
fill
0.000 0.000 0.749 nodecolor
newpath 207 0 moveto
251 0 lineto
251 20 lineto
207 20 lineto
closepath
stroke
gsave 10 dict begin
0.000 0.000 0.000 nodecolor
215 7 moveto
(limits)
[2.88 2.88 9.6 2.88 3.84 5.04]
xshow
end grestore
end grestore
% Node3->Node10
gsave 10 dict begin
solid
0.667 0.776 0.439 edgecolor
newpath 128 114 moveto
138 95 164 55 194 29 curveto
195 28 197 27 199 26 curveto
stroke
gsave 10 dict begin
solid
1 setlinewidth
0.667 0.776 0.439 edgecolor
newpath 201 29 moveto
207 20 lineto
197 23 lineto
closepath
fill
0.667 0.776 0.439 edgecolor
newpath 201 29 moveto
207 20 lineto
197 23 lineto
closepath
stroke
end grestore
end grestore
endpage
showpage
grestore
%%PageTrailer
%%EndPage: 1
%%Trailer
%%Pages: 1
end
restore
%%EOF
