%!PS-Adobe-2.0
%%Creator: dot version 2.6 (Tue Nov  4 00:07:08 UTC 2008)
%%For: (inonshar) 
%%Title: G
%%Pages: (atend)
%%BoundingBox: 0 0 467 259
%%EndComments
save
%%BeginProlog
/DotDict 200 dict def
DotDict begin

/setupLatin1 {
mark
/EncodingVector 256 array def
 EncodingVector 0

ISOLatin1Encoding 0 255 getinterval putinterval
EncodingVector 45 /hyphen put

% Set up ISO Latin 1 character encoding
/starnetISO {
        dup dup findfont dup length dict begin
        { 1 index /FID ne { def }{ pop pop } ifelse
        } forall
        /Encoding EncodingVector def
        currentdict end definefont
} def
/Times-Roman starnetISO def
/Times-Italic starnetISO def
/Times-Bold starnetISO def
/Times-BoldItalic starnetISO def
/Helvetica starnetISO def
/Helvetica-Oblique starnetISO def
/Helvetica-Bold starnetISO def
/Helvetica-BoldOblique starnetISO def
/Courier starnetISO def
/Courier-Oblique starnetISO def
/Courier-Bold starnetISO def
/Courier-BoldOblique starnetISO def
cleartomark
} bind def

%%BeginResource: procset graphviz 0 0
/coord-font-family /Times-Roman def
/default-font-family /Times-Roman def
/coordfont coord-font-family findfont 8 scalefont def

/InvScaleFactor 1.0 def
/set_scale {
	dup 1 exch div /InvScaleFactor exch def
	dup scale
} bind def

% styles
/solid { [] 0 setdash } bind def
/dashed { [9 InvScaleFactor mul dup ] 0 setdash } bind def
/dotted { [1 InvScaleFactor mul 6 InvScaleFactor mul] 0 setdash } bind def
/invis {/fill {newpath} def /stroke {newpath} def /show {pop newpath} def} bind def
/bold { 2 setlinewidth } bind def
/filled { } bind def
/unfilled { } bind def
/rounded { } bind def
/diagonals { } bind def

% hooks for setting color 
/nodecolor { sethsbcolor } bind def
/edgecolor { sethsbcolor } bind def
/graphcolor { sethsbcolor } bind def
/nopcolor {pop pop pop} bind def

/beginpage {	% i j npages
	/npages exch def
	/j exch def
	/i exch def
	/str 10 string def
	npages 1 gt {
		gsave
			coordfont setfont
			0 0 moveto
			(\() show i str cvs show (,) show j str cvs show (\)) show
		grestore
	} if
} bind def

/set_font {
	findfont exch
	scalefont setfont
} def

% draw aligned label in bounding box aligned to current point
/alignedtext {			% width adj text
	/text exch def
	/adj exch def
	/width exch def
	gsave
		width 0 gt {
			text stringwidth pop adj mul 0 rmoveto
		} if
		[] 0 setdash
		text show
	grestore
} def

/boxprim {				% xcorner ycorner xsize ysize
		4 2 roll
		moveto
		2 copy
		exch 0 rlineto
		0 exch rlineto
		pop neg 0 rlineto
		closepath
} bind def

/ellipse_path {
	/ry exch def
	/rx exch def
	/y exch def
	/x exch def
	matrix currentmatrix
	newpath
	x y translate
	rx ry scale
	0 0 1 0 360 arc
	setmatrix
} bind def

/endpage { showpage } bind def
/showpage { } def

/layercolorseq
	[	% layer color sequence - darkest to lightest
		[0 0 0]
		[.2 .8 .8]
		[.4 .8 .8]
		[.6 .8 .8]
		[.8 .8 .8]
	]
def

/layerlen layercolorseq length def

/setlayer {/maxlayer exch def /curlayer exch def
	layercolorseq curlayer 1 sub layerlen mod get
	aload pop sethsbcolor
	/nodecolor {nopcolor} def
	/edgecolor {nopcolor} def
	/graphcolor {nopcolor} def
} bind def

/onlayer { curlayer ne {invis} if } def

/onlayers {
	/myupper exch def
	/mylower exch def
	curlayer mylower lt
	curlayer myupper gt
	or
	{invis} if
} def

/curlayer 0 def

%%EndResource
%%EndProlog
%%BeginSetup
14 default-font-family set_font
1 setmiterlimit
% /arrowlength 10 def
% /arrowwidth 5 def

% make sure pdfmark is harmless for PS-interpreters other than Distiller
/pdfmark where {pop} {userdict /pdfmark /cleartomark load put} ifelse
% make '<<' and '>>' safe on PS Level 1 devices
/languagelevel where {pop languagelevel}{1} ifelse
2 lt {
    userdict (<<) cvn ([) cvn load put
    userdict (>>) cvn ([) cvn load put
} if

%%EndSetup
%%Page: 1 1
%%PageBoundingBox: 5 5 462 254
%%PageOrientation: Portrait
gsave
0 0 467 259 boxprim clip newpath
5 5 translate
0 0 1 beginpage
1.0000 set_scale
0 0 translate 0 rotate
0.000 0.000 0.000 graphcolor
10.00 /FreeSans.ttf set_font
% Node1
gsave 10 dict begin
filled
0.000 0.000 0.749 nodecolor
newpath 0 114 moveto
120 114 lineto
120 134 lineto
0 134 lineto
closepath
fill
0.000 0.000 0.000 nodecolor
newpath 0 114 moveto
120 114 lineto
120 134 lineto
0 134 lineto
closepath
stroke
gsave 10 dict begin
8 121 moveto
(testCalcTransmission)
[3.84 6 5.04 3.84 6.72 6 2.88 5.52 4.56 4.08 6 6.24 5.04 9.6 2.88 5.04 5.04 2.88 6 6.24]
xshow
end grestore
end grestore
% Node2
[ /Rect [ 173 228 439 248 ]
  /Border [ 0 0 0 ]
  /Action << /Subtype /URI /URI ($tests_8h.html#425d300598a605b03faefe638a32fb2d) >>
  /Subtype /Link
/ANN pdfmark
gsave 10 dict begin
filled
0.000 1.000 1.000 nodecolor
0.000 0.000 1.000 nodecolor
newpath 173 228 moveto
440 228 lineto
440 248 lineto
173 248 lineto
closepath
fill
0.000 1.000 1.000 nodecolor
newpath 173 228 moveto
440 228 lineto
440 248 lineto
173 248 lineto
closepath
stroke
gsave 10 dict begin
0.000 0.000 0.000 nodecolor
180 235 moveto
(testCalcTransmission2uncoupledDegenerateModes)
[3.84 6 5.04 3.84 6.72 6 2.88 5.52 4.56 4.08 6 6.24 5.04 9.6 2.88 5.04 5.04 2.88 6 6.24 6.24 6.24 6.24 5.52 6 6.24 6.24 2.88 6 6.24 7.44 6 6.24 6 6.24 6 4.08 6 3.84 6 8.4 6 6.24 6 5.04]
xshow
end grestore
end grestore
% Node1->Node2
gsave 10 dict begin
solid
0.667 0.776 0.439 edgecolor
newpath 67 134 moveto
81 154 116 198 156 219 curveto
160 221 165 223 169 225 curveto
stroke
gsave 10 dict begin
solid
1 setlinewidth
0.667 0.776 0.439 edgecolor
newpath 168 228 moveto
179 228 lineto
170 222 lineto
closepath
fill
0.667 0.776 0.439 edgecolor
newpath 168 228 moveto
179 228 lineto
170 222 lineto
closepath
stroke
end grestore
end grestore
% Node6
[ /Rect [ 217 190 395 210 ]
  /Border [ 0 0 0 ]
  /Action << /Subtype /URI /URI ($tests_8h.html#ae13ab233739fb56b788f5e72ad6ae47) >>
  /Subtype /Link
/ANN pdfmark
gsave 10 dict begin
filled
0.000 1.000 1.000 nodecolor
0.000 0.000 1.000 nodecolor
newpath 217 190 moveto
395 190 lineto
395 210 lineto
217 210 lineto
closepath
fill
0.000 1.000 1.000 nodecolor
newpath 217 190 moveto
395 190 lineto
395 210 lineto
217 210 lineto
closepath
stroke
gsave 10 dict begin
0.000 0.000 0.000 nodecolor
225 197 moveto
(testCalcTransmissionDiatomic1D)
[3.84 6 5.04 3.84 6.72 6 2.88 5.52 4.56 4.08 6 6.24 5.04 9.6 2.88 5.04 5.04 2.88 6 6.24 7.44 2.88 6 3.84 6 9.6 2.88 5.52 6.24 7.44]
xshow
end grestore
end grestore
% Node1->Node6
gsave 10 dict begin
solid
0.667 0.776 0.439 edgecolor
newpath 73 134 moveto
91 147 125 169 156 181 curveto
172 186 189 190 207 193 curveto
stroke
gsave 10 dict begin
solid
1 setlinewidth
0.667 0.776 0.439 edgecolor
newpath 207 196 moveto
217 194 lineto
207 190 lineto
closepath
fill
0.667 0.776 0.439 edgecolor
newpath 207 196 moveto
217 194 lineto
207 190 lineto
closepath
stroke
end grestore
end grestore
% Node8
[ /Rect [ 183 152 429 172 ]
  /Border [ 0 0 0 ]
  /Action << /Subtype /URI /URI ($tests_8h.html#91e5bab4ea43a342413a4c54d2d4f93b) >>
  /Subtype /Link
/ANN pdfmark
gsave 10 dict begin
filled
0.000 1.000 1.000 nodecolor
0.000 0.000 1.000 nodecolor
newpath 183 152 moveto
429 152 lineto
429 172 lineto
183 172 lineto
closepath
fill
0.000 1.000 1.000 nodecolor
newpath 183 152 moveto
429 152 lineto
429 172 lineto
183 172 lineto
closepath
stroke
gsave 10 dict begin
0.000 0.000 0.000 nodecolor
191 159 moveto
(testCalcTransmissionDiatomicIdentityGammas)
[3.84 6 5.04 3.84 6.72 6 2.88 5.52 4.56 4.08 6 6.24 5.04 9.6 2.88 5.04 5.04 2.88 6 6.24 7.44 2.88 6 3.84 6 9.6 2.88 5.52 2.88 6.24 6 6.24 3.84 2.88 3.84 5.76 7.44 6 9.6 9.6 6 5.04]
xshow
end grestore
end grestore
% Node1->Node8
gsave 10 dict begin
solid
0.667 0.776 0.439 edgecolor
newpath 108 134 moveto
123 137 140 140 156 143 curveto
174 146 193 148 212 151 curveto
stroke
gsave 10 dict begin
solid
1 setlinewidth
0.667 0.776 0.439 edgecolor
newpath 212 154 moveto
222 152 lineto
212 148 lineto
closepath
fill
0.667 0.776 0.439 edgecolor
newpath 212 154 moveto
222 152 lineto
212 148 lineto
closepath
stroke
end grestore
end grestore
% Node9
[ /Rect [ 175 114 437 134 ]
  /Border [ 0 0 0 ]
  /Action << /Subtype /URI /URI ($tests_8h.html#8d91d7593024da6df40ce08d30e61794) >>
  /Subtype /Link
/ANN pdfmark
gsave 10 dict begin
filled
0.000 1.000 1.000 nodecolor
0.000 0.000 1.000 nodecolor
newpath 175 114 moveto
437 114 lineto
437 134 lineto
175 134 lineto
closepath
fill
0.000 1.000 1.000 nodecolor
newpath 175 114 moveto
437 114 lineto
437 134 lineto
175 134 lineto
closepath
stroke
gsave 10 dict begin
0.000 0.000 0.000 nodecolor
183 121 moveto
(testCalcTransmissionGammaOnesDiagonalGreens)
[3.84 6 5.04 3.84 6.72 6 2.88 5.52 4.56 4.08 6 6.24 5.04 9.6 2.88 5.04 5.04 2.88 6 6.24 7.44 6 9.6 9.6 6 7.44 6.24 6 5.04 7.44 2.88 6 6.24 6 6.24 6 2.88 7.44 3.84 6 6 6.24 5.04]
xshow
end grestore
end grestore
% Node1->Node9
gsave 10 dict begin
solid
0.667 0.776 0.439 edgecolor
newpath 120 124 moveto
134 124 149 124 165 124 curveto
stroke
gsave 10 dict begin
solid
1 setlinewidth
0.667 0.776 0.439 edgecolor
newpath 165 128 moveto
175 124 lineto
165 121 lineto
closepath
fill
0.667 0.776 0.439 edgecolor
newpath 165 128 moveto
175 124 lineto
165 121 lineto
closepath
stroke
end grestore
end grestore
% Node10
[ /Rect [ 195 76 417 96 ]
  /Border [ 0 0 0 ]
  /Action << /Subtype /URI /URI ($tests_8h.html#50f065373d4e4f26a5bae7513b0aa1d3) >>
  /Subtype /Link
/ANN pdfmark
gsave 10 dict begin
filled
0.000 1.000 1.000 nodecolor
0.000 0.000 1.000 nodecolor
newpath 195 76 moveto
417 76 lineto
417 96 lineto
195 96 lineto
closepath
fill
0.000 1.000 1.000 nodecolor
newpath 195 76 moveto
417 76 lineto
417 96 lineto
195 96 lineto
closepath
stroke
gsave 10 dict begin
0.000 0.000 0.000 nodecolor
203 83 moveto
(testCalcTransmissionIdentityMatrixesOnly)
[3.84 6 5.04 3.84 6.72 6 2.88 5.52 4.56 4.08 6 6.24 5.04 9.6 2.88 5.04 5.04 2.88 6 6.24 2.88 6.24 6 6.24 3.84 2.88 3.84 5.76 8.4 6 3.84 4.08 2.88 5.52 6 5.04 7.44 6.24 2.88 5.76]
xshow
end grestore
end grestore
% Node1->Node10
gsave 10 dict begin
solid
0.667 0.776 0.439 edgecolor
newpath 106 114 moveto
122 111 140 107 156 105 curveto
173 102 191 100 208 97 curveto
stroke
gsave 10 dict begin
solid
1 setlinewidth
0.667 0.776 0.439 edgecolor
newpath 208 100 moveto
218 96 lineto
208 94 lineto
closepath
fill
0.667 0.776 0.439 edgecolor
newpath 208 100 moveto
218 96 lineto
208 94 lineto
closepath
stroke
end grestore
end grestore
% Node11
[ /Rect [ 224 38 388 58 ]
  /Border [ 0 0 0 ]
  /Action << /Subtype /URI /URI ($tests_8h.html#e31361a603224471c71f9739e60c28d4) >>
  /Subtype /Link
/ANN pdfmark
gsave 10 dict begin
filled
0.000 1.000 1.000 nodecolor
0.000 0.000 1.000 nodecolor
newpath 224 38 moveto
389 38 lineto
389 58 lineto
224 58 lineto
closepath
fill
0.000 1.000 1.000 nodecolor
newpath 224 38 moveto
389 38 lineto
389 58 lineto
224 58 lineto
closepath
stroke
gsave 10 dict begin
0.000 0.000 0.000 nodecolor
231 45 moveto
(testCalcTransmissionTriatomic)
[3.84 6 5.04 3.84 6.72 6 2.88 5.52 4.56 4.08 6 6.24 5.04 9.6 2.88 5.04 5.04 2.88 6 6.24 4.56 4.08 2.88 6 3.84 6 9.6 2.88 5.52]
xshow
end grestore
end grestore
% Node1->Node11
gsave 10 dict begin
solid
0.667 0.776 0.439 edgecolor
newpath 73 114 moveto
91 101 125 78 156 67 curveto
174 61 194 56 214 53 curveto
stroke
gsave 10 dict begin
solid
1 setlinewidth
0.667 0.776 0.439 edgecolor
newpath 214 56 moveto
224 52 lineto
214 50 lineto
closepath
fill
0.667 0.776 0.439 edgecolor
newpath 214 56 moveto
224 52 lineto
214 50 lineto
closepath
stroke
end grestore
end grestore
% Node12
[ /Rect [ 156 0 456 20 ]
  /Border [ 0 0 0 ]
  /Action << /Subtype /URI /URI ($tests_8h.html#61b2fa2a169dcbaeb75585986ac46757) >>
  /Subtype /Link
/ANN pdfmark
gsave 10 dict begin
filled
0.000 1.000 1.000 nodecolor
0.000 0.000 1.000 nodecolor
newpath 156 0 moveto
456 0 lineto
456 20 lineto
156 20 lineto
closepath
fill
0.000 1.000 1.000 nodecolor
newpath 156 0 moveto
456 0 lineto
456 20 lineto
156 20 lineto
closepath
stroke
gsave 10 dict begin
0.000 0.000 0.000 nodecolor
164 7 moveto
(testCalcTransmissionTriatomicDiagonalPartOfFullGammas)
[3.84 6 5.04 3.84 6.72 6 2.88 5.52 4.56 4.08 6 6.24 5.04 9.6 2.88 5.04 5.04 2.88 6 6.24 4.56 4.08 2.88 6 3.84 6 9.6 2.88 5.52 7.44 2.88 6 6.24 6 6.24 6 2.88 5.28 6 4.08 3.84 7.44 3.36 5.04 6.24 2.88 2.88 7.44 6 9.6 9.6 6 5.04]
xshow
end grestore
end grestore
% Node1->Node12
gsave 10 dict begin
solid
0.667 0.776 0.439 edgecolor
newpath 67 114 moveto
81 94 116 49 156 29 curveto
160 27 165 25 169 23 curveto
stroke
gsave 10 dict begin
solid
1 setlinewidth
0.667 0.776 0.439 edgecolor
newpath 170 26 moveto
179 20 lineto
168 20 lineto
closepath
fill
0.667 0.776 0.439 edgecolor
newpath 170 26 moveto
179 20 lineto
168 20 lineto
closepath
stroke
end grestore
end grestore
endpage
showpage
grestore
%%PageTrailer
%%EndPage: 1
%%Trailer
%%Pages: 1
end
restore
%%EOF
