%!PS-Adobe-2.0
%%Creator: dot version 2.6 (Tue Nov  4 00:07:08 UTC 2008)
%%For: (inonshar) 
%%Title: G
%%Pages: (atend)
%%BoundingBox: 0 0 699 408
%%EndComments
save
%%BeginProlog
/DotDict 200 dict def
DotDict begin

/setupLatin1 {
mark
/EncodingVector 256 array def
 EncodingVector 0

ISOLatin1Encoding 0 255 getinterval putinterval
EncodingVector 45 /hyphen put

% Set up ISO Latin 1 character encoding
/starnetISO {
        dup dup findfont dup length dict begin
        { 1 index /FID ne { def }{ pop pop } ifelse
        } forall
        /Encoding EncodingVector def
        currentdict end definefont
} def
/Times-Roman starnetISO def
/Times-Italic starnetISO def
/Times-Bold starnetISO def
/Times-BoldItalic starnetISO def
/Helvetica starnetISO def
/Helvetica-Oblique starnetISO def
/Helvetica-Bold starnetISO def
/Helvetica-BoldOblique starnetISO def
/Courier starnetISO def
/Courier-Oblique starnetISO def
/Courier-Bold starnetISO def
/Courier-BoldOblique starnetISO def
cleartomark
} bind def

%%BeginResource: procset graphviz 0 0
/coord-font-family /Times-Roman def
/default-font-family /Times-Roman def
/coordfont coord-font-family findfont 8 scalefont def

/InvScaleFactor 1.0 def
/set_scale {
	dup 1 exch div /InvScaleFactor exch def
	dup scale
} bind def

% styles
/solid { [] 0 setdash } bind def
/dashed { [9 InvScaleFactor mul dup ] 0 setdash } bind def
/dotted { [1 InvScaleFactor mul 6 InvScaleFactor mul] 0 setdash } bind def
/invis {/fill {newpath} def /stroke {newpath} def /show {pop newpath} def} bind def
/bold { 2 setlinewidth } bind def
/filled { } bind def
/unfilled { } bind def
/rounded { } bind def
/diagonals { } bind def

% hooks for setting color 
/nodecolor { sethsbcolor } bind def
/edgecolor { sethsbcolor } bind def
/graphcolor { sethsbcolor } bind def
/nopcolor {pop pop pop} bind def

/beginpage {	% i j npages
	/npages exch def
	/j exch def
	/i exch def
	/str 10 string def
	npages 1 gt {
		gsave
			coordfont setfont
			0 0 moveto
			(\() show i str cvs show (,) show j str cvs show (\)) show
		grestore
	} if
} bind def

/set_font {
	findfont exch
	scalefont setfont
} def

% draw aligned label in bounding box aligned to current point
/alignedtext {			% width adj text
	/text exch def
	/adj exch def
	/width exch def
	gsave
		width 0 gt {
			text stringwidth pop adj mul 0 rmoveto
		} if
		[] 0 setdash
		text show
	grestore
} def

/boxprim {				% xcorner ycorner xsize ysize
		4 2 roll
		moveto
		2 copy
		exch 0 rlineto
		0 exch rlineto
		pop neg 0 rlineto
		closepath
} bind def

/ellipse_path {
	/ry exch def
	/rx exch def
	/y exch def
	/x exch def
	matrix currentmatrix
	newpath
	x y translate
	rx ry scale
	0 0 1 0 360 arc
	setmatrix
} bind def

/endpage { showpage } bind def
/showpage { } def

/layercolorseq
	[	% layer color sequence - darkest to lightest
		[0 0 0]
		[.2 .8 .8]
		[.4 .8 .8]
		[.6 .8 .8]
		[.8 .8 .8]
	]
def

/layerlen layercolorseq length def

/setlayer {/maxlayer exch def /curlayer exch def
	layercolorseq curlayer 1 sub layerlen mod get
	aload pop sethsbcolor
	/nodecolor {nopcolor} def
	/edgecolor {nopcolor} def
	/graphcolor {nopcolor} def
} bind def

/onlayer { curlayer ne {invis} if } def

/onlayers {
	/myupper exch def
	/mylower exch def
	curlayer mylower lt
	curlayer myupper gt
	or
	{invis} if
} def

/curlayer 0 def

%%EndResource
%%EndProlog
%%BeginSetup
14 default-font-family set_font
1 setmiterlimit
% /arrowlength 10 def
% /arrowwidth 5 def

% make sure pdfmark is harmless for PS-interpreters other than Distiller
/pdfmark where {pop} {userdict /pdfmark /cleartomark load put} ifelse
% make '<<' and '>>' safe on PS Level 1 devices
/languagelevel where {pop languagelevel}{1} ifelse
2 lt {
    userdict (<<) cvn ([) cvn load put
    userdict (>>) cvn ([) cvn load put
} if

%%EndSetup
%%Page: 1 1
%%PageBoundingBox: 5 5 694 403
%%PageOrientation: Portrait
gsave
0 0 699 408 boxprim clip newpath
5 5 translate
0 0 1 beginpage
1.0000 set_scale
0 0 translate 0 rotate
0.000 0.000 0.000 graphcolor
10.00 /FreeSans.ttf set_font
% Node1
gsave 10 dict begin
filled
0.000 0.000 0.749 nodecolor
newpath 0 228 moveto
48 228 lineto
48 248 lineto
0 248 lineto
closepath
fill
0.000 0.000 0.000 nodecolor
newpath 0 228 moveto
48 228 lineto
48 248 lineto
0 248 lineto
closepath
stroke
gsave 10 dict begin
8 235 moveto
(testAll)
[3.84 6 5.04 3.84 6.72 2.88 2.88]
xshow
end grestore
end grestore
% Node2
[ /Rect [ 99 361 209 381 ]
  /Border [ 0 0 0 ]
  /Action << /Subtype /URI /URI ($tests_8h.html#7e0b8ed3592e8eb259951d712a36a759) >>
  /Subtype /Link
/ANN pdfmark
gsave 10 dict begin
filled
0.000 0.000 1.000 nodecolor
newpath 99 361 moveto
210 361 lineto
210 381 lineto
99 381 lineto
closepath
fill
0.000 0.000 0.000 nodecolor
newpath 99 361 moveto
210 361 lineto
210 381 lineto
99 381 lineto
closepath
stroke
gsave 10 dict begin
106 368 moveto
(testCalcGammaNM)
[3.84 6 5.04 3.84 6.72 6 2.88 5.52 7.44 6 9.6 9.6 6 7.44 8.4]
xshow
end grestore
end grestore
% Node1->Node2
gsave 10 dict begin
solid
0.667 0.776 0.439 edgecolor
newpath 27 248 moveto
33 271 50 324 84 352 curveto
86 354 88 355 90 356 curveto
stroke
gsave 10 dict begin
solid
1 setlinewidth
0.667 0.776 0.439 edgecolor
newpath 89 359 moveto
99 361 lineto
92 353 lineto
closepath
fill
0.667 0.776 0.439 edgecolor
newpath 89 359 moveto
99 361 lineto
92 353 lineto
closepath
stroke
end grestore
end grestore
% Node4
[ /Rect [ 109 323 199 343 ]
  /Border [ 0 0 0 ]
  /Action << /Subtype /URI /URI ($tests_8h.html#0410fee5f7afe79fe2a66ed26f2ea68e) >>
  /Subtype /Link
/ANN pdfmark
gsave 10 dict begin
filled
0.000 0.000 1.000 nodecolor
newpath 109 323 moveto
200 323 lineto
200 343 lineto
109 343 lineto
closepath
fill
0.000 0.000 0.000 nodecolor
newpath 109 323 moveto
200 323 lineto
200 343 lineto
109 343 lineto
closepath
stroke
gsave 10 dict begin
116 330 moveto
(testCalcGreens)
[3.84 6 5.04 3.84 6.72 6 2.88 5.52 7.44 3.84 6 6 6.24 5.04]
xshow
end grestore
end grestore
% Node1->Node4
gsave 10 dict begin
solid
0.667 0.776 0.439 edgecolor
newpath 29 248 moveto
38 265 59 297 84 314 curveto
88 317 94 320 99 322 curveto
stroke
gsave 10 dict begin
solid
1 setlinewidth
0.667 0.776 0.439 edgecolor
newpath 98 325 moveto
109 325 lineto
100 319 lineto
closepath
fill
0.667 0.776 0.439 edgecolor
newpath 98 325 moveto
109 325 lineto
100 319 lineto
closepath
stroke
end grestore
end grestore
% Node6
[ /Rect [ 84 285 224 305 ]
  /Border [ 0 0 0 ]
  /Action << /Subtype /URI /URI ($tests_8h.html#01c1cd4b798b4ecab8f27eb44df07670) >>
  /Subtype /Link
/ANN pdfmark
gsave 10 dict begin
filled
0.000 0.000 1.000 nodecolor
newpath 84 285 moveto
224 285 lineto
224 305 lineto
84 305 lineto
closepath
fill
0.000 0.000 0.000 nodecolor
newpath 84 285 moveto
224 285 lineto
224 305 lineto
84 305 lineto
closepath
stroke
gsave 10 dict begin
92 292 moveto
(testCalcInverseResolvent)
[3.84 6 5.04 3.84 6.72 6 2.88 5.52 2.88 6.24 5.76 6 4.08 5.04 6 6.24 6 5.04 6 2.88 5.76 6 6.24 3.84]
xshow
end grestore
end grestore
% Node1->Node6
gsave 10 dict begin
solid
0.667 0.776 0.439 edgecolor
newpath 37 248 moveto
49 257 67 269 84 276 curveto
89 278 94 280 99 281 curveto
stroke
gsave 10 dict begin
solid
1 setlinewidth
0.667 0.776 0.439 edgecolor
newpath 98 285 moveto
109 285 lineto
101 278 lineto
closepath
fill
0.667 0.776 0.439 edgecolor
newpath 98 285 moveto
109 285 lineto
101 278 lineto
closepath
stroke
end grestore
end grestore
% Node8
[ /Rect [ 89 247 219 267 ]
  /Border [ 0 0 0 ]
  /Action << /Subtype /URI /URI ($tests_8h.html#8e0c2f3c9a243c527792331b0416fba4) >>
  /Subtype /Link
/ANN pdfmark
gsave 10 dict begin
filled
0.000 0.000 1.000 nodecolor
newpath 89 247 moveto
219 247 lineto
219 267 lineto
89 267 lineto
closepath
fill
0.000 0.000 0.000 nodecolor
newpath 89 247 moveto
219 247 lineto
219 267 lineto
89 267 lineto
closepath
stroke
gsave 10 dict begin
97 254 moveto
(testCalcOmegaDomain)
[3.84 6 5.04 3.84 6.72 6 2.88 5.52 7.44 9.6 6 6.24 6 7.44 6 9.6 6 2.88 6.24]
xshow
end grestore
end grestore
% Node1->Node8
gsave 10 dict begin
solid
0.667 0.776 0.439 edgecolor
newpath 48 242 moveto
57 244 68 245 79 247 curveto
stroke
gsave 10 dict begin
solid
1 setlinewidth
0.667 0.776 0.439 edgecolor
newpath 79 250 moveto
89 248 lineto
79 244 lineto
closepath
fill
0.667 0.776 0.439 edgecolor
newpath 79 250 moveto
89 248 lineto
79 244 lineto
closepath
stroke
end grestore
end grestore
% Node9
[ /Rect [ 97 209 211 229 ]
  /Border [ 0 0 0 ]
  /Action << /Subtype /URI /URI ($tests_8h.html#08fd3593131ae6c1fb34d86d842dda6b) >>
  /Subtype /Link
/ANN pdfmark
gsave 10 dict begin
filled
0.000 0.000 1.000 nodecolor
newpath 97 209 moveto
212 209 lineto
212 229 lineto
97 229 lineto
closepath
fill
0.000 0.000 0.000 nodecolor
newpath 97 209 moveto
212 209 lineto
212 229 lineto
97 229 lineto
closepath
stroke
gsave 10 dict begin
104 216 moveto
(testCalcOmegaPops)
[3.84 6 5.04 3.84 6.72 6 2.88 5.52 7.44 9.6 6 6.24 6 5.52 6 6.24 5.04]
xshow
end grestore
end grestore
% Node1->Node9
gsave 10 dict begin
solid
0.667 0.776 0.439 edgecolor
newpath 48 234 moveto
59 232 73 231 87 229 curveto
stroke
gsave 10 dict begin
solid
1 setlinewidth
0.667 0.776 0.439 edgecolor
newpath 88 232 moveto
97 227 lineto
87 226 lineto
closepath
fill
0.667 0.776 0.439 edgecolor
newpath 88 232 moveto
97 227 lineto
87 226 lineto
closepath
stroke
end grestore
end grestore
% Node10
[ /Rect [ 91 171 217 191 ]
  /Border [ 0 0 0 ]
  /Action << /Subtype /URI /URI ($tests_8h.html#354a71502a2dd338dae8d86189305af9) >>
  /Subtype /Link
/ANN pdfmark
gsave 10 dict begin
filled
0.000 0.000 1.000 nodecolor
newpath 91 171 moveto
218 171 lineto
218 191 lineto
91 191 lineto
closepath
fill
0.000 0.000 0.000 nodecolor
newpath 91 171 moveto
218 171 lineto
218 191 lineto
91 191 lineto
closepath
stroke
gsave 10 dict begin
98 178 moveto
(testCalcRigidBodyDOF)
[3.84 6 5.04 3.84 6.72 6 2.88 5.52 6.72 2.88 6.24 2.88 6.24 6.72 6 6.24 5.76 7.44 7.44 5.52]
xshow
end grestore
end grestore
% Node1->Node10
gsave 10 dict begin
solid
0.667 0.776 0.439 edgecolor
newpath 38 228 moveto
50 219 68 208 84 200 curveto
90 198 96 196 101 194 curveto
stroke
gsave 10 dict begin
solid
1 setlinewidth
0.667 0.776 0.439 edgecolor
newpath 102 197 moveto
111 191 lineto
100 191 lineto
closepath
fill
0.667 0.776 0.439 edgecolor
newpath 102 197 moveto
111 191 lineto
100 191 lineto
closepath
stroke
end grestore
end grestore
% Node11
[ /Rect [ 107 133 201 153 ]
  /Border [ 0 0 0 ]
  /Action << /Subtype /URI /URI ($tests_8h.html#43caa4d0a6466c409ce9eaf1bdd96dd3) >>
  /Subtype /Link
/ANN pdfmark
gsave 10 dict begin
filled
0.000 0.000 1.000 nodecolor
newpath 107 133 moveto
202 133 lineto
202 153 lineto
107 153 lineto
closepath
fill
0.000 0.000 0.000 nodecolor
newpath 107 133 moveto
202 133 lineto
202 153 lineto
107 153 lineto
closepath
stroke
gsave 10 dict begin
114 140 moveto
(testCalcSqDelta)
[3.84 6 5.04 3.84 6.72 6 2.88 5.52 6.24 6.24 7.44 6 2.88 3.84 6]
xshow
end grestore
end grestore
% Node1->Node11
gsave 10 dict begin
solid
0.667 0.776 0.439 edgecolor
newpath 29 228 moveto
38 212 59 179 84 162 curveto
88 160 93 157 97 155 curveto
stroke
gsave 10 dict begin
solid
1 setlinewidth
0.667 0.776 0.439 edgecolor
newpath 98 158 moveto
107 152 lineto
96 152 lineto
closepath
fill
0.667 0.776 0.439 edgecolor
newpath 98 158 moveto
107 152 lineto
96 152 lineto
closepath
stroke
end grestore
end grestore
% Node12
[ /Rect [ 94 95 214 115 ]
  /Border [ 0 0 0 ]
  /Action << /Subtype /URI /URI ($tests_8h.html#9688f7d75a3faaecbb7f365ac4b1ecd1) >>
  /Subtype /Link
/ANN pdfmark
gsave 10 dict begin
filled
0.000 0.000 1.000 nodecolor
newpath 94 95 moveto
214 95 lineto
214 115 lineto
94 115 lineto
closepath
fill
0.000 0.000 0.000 nodecolor
newpath 94 95 moveto
214 95 lineto
214 115 lineto
94 115 lineto
closepath
stroke
gsave 10 dict begin
102 102 moveto
(testCalcTransmission)
[3.84 6 5.04 3.84 6.72 6 2.88 5.52 4.56 4.08 6 6.24 5.04 9.6 2.88 5.04 5.04 2.88 6 6.24]
xshow
end grestore
end grestore
% Node1->Node12
gsave 10 dict begin
solid
0.667 0.776 0.439 edgecolor
newpath 27 228 moveto
33 205 50 152 84 124 curveto
86 122 88 121 90 120 curveto
stroke
gsave 10 dict begin
solid
1 setlinewidth
0.667 0.776 0.439 edgecolor
newpath 92 123 moveto
99 115 lineto
89 117 lineto
closepath
fill
0.667 0.776 0.439 edgecolor
newpath 92 123 moveto
99 115 lineto
89 117 lineto
closepath
stroke
end grestore
end grestore
% Node3
[ /Rect [ 597 275 687 295 ]
  /Border [ 0 0 0 ]
  /Action << /Subtype /URI /URI ($functions_8h.html#088c749981b7a47a3ece2cb5eee7ad07) >>
  /Subtype /Link
/ANN pdfmark
gsave 10 dict begin
filled
0.000 0.000 1.000 nodecolor
newpath 597 275 moveto
688 275 lineto
688 295 lineto
597 295 lineto
closepath
fill
0.000 0.000 0.000 nodecolor
newpath 597 275 moveto
688 275 lineto
688 295 lineto
597 295 lineto
closepath
stroke
gsave 10 dict begin
604 282 moveto
(calcGammaNM)
[5.52 6 2.88 5.52 7.44 6 9.6 9.6 6 7.44 8.4]
xshow
end grestore
end grestore
% Node2->Node3
gsave 10 dict begin
solid
0.667 0.776 0.439 edgecolor
newpath 210 379 moveto
291 388 443 397 560 352 curveto
587 342 612 319 627 302 curveto
stroke
gsave 10 dict begin
solid
1 setlinewidth
0.667 0.776 0.439 edgecolor
newpath 629 305 moveto
634 295 lineto
624 300 lineto
closepath
fill
0.667 0.776 0.439 edgecolor
newpath 629 305 moveto
634 295 lineto
624 300 lineto
closepath
stroke
end grestore
end grestore
% Node5
[ /Rect [ 375 323 445 343 ]
  /Border [ 0 0 0 ]
  /Action << /Subtype /URI /URI ($functions_8h.html#0285b5a502b8bb296317d961d5405e84) >>
  /Subtype /Link
/ANN pdfmark
gsave 10 dict begin
filled
0.000 0.000 1.000 nodecolor
newpath 375 323 moveto
446 323 lineto
446 343 lineto
375 343 lineto
closepath
fill
0.000 0.000 0.000 nodecolor
newpath 375 323 moveto
446 323 lineto
446 343 lineto
375 343 lineto
closepath
stroke
gsave 10 dict begin
382 330 moveto
(calcGreens)
[5.52 6 2.88 5.52 7.44 3.84 6 6 6.24 5.04]
xshow
end grestore
end grestore
% Node4->Node5
gsave 10 dict begin
solid
0.667 0.776 0.439 edgecolor
newpath 200 333 moveto
246 333 318 333 365 333 curveto
stroke
gsave 10 dict begin
solid
1 setlinewidth
0.667 0.776 0.439 edgecolor
newpath 365 337 moveto
375 333 lineto
365 330 lineto
closepath
fill
0.667 0.776 0.439 edgecolor
newpath 365 337 moveto
375 333 lineto
365 330 lineto
closepath
stroke
end grestore
end grestore
% Node7
[ /Rect [ 350 285 470 305 ]
  /Border [ 0 0 0 ]
  /Action << /Subtype /URI /URI ($functions_8h.html#7a20bb7229e497c7ff8dda262c6417dc) >>
  /Subtype /Link
/ANN pdfmark
gsave 10 dict begin
filled
0.000 0.000 1.000 nodecolor
newpath 350 285 moveto
471 285 lineto
471 305 lineto
350 305 lineto
closepath
fill
0.000 0.000 0.000 nodecolor
newpath 350 285 moveto
471 285 lineto
471 305 lineto
350 305 lineto
closepath
stroke
gsave 10 dict begin
357 292 moveto
(calcInverseResolvent)
[5.52 6 2.88 5.52 2.88 6.24 5.76 6 4.08 5.04 6 6.24 6 5.04 6 2.88 5.76 6 6.24 3.84]
xshow
end grestore
end grestore
% Node6->Node7
gsave 10 dict begin
solid
0.667 0.776 0.439 edgecolor
newpath 224 295 moveto
260 295 304 295 340 295 curveto
stroke
gsave 10 dict begin
solid
1 setlinewidth
0.667 0.776 0.439 edgecolor
newpath 340 299 moveto
350 295 lineto
340 292 lineto
closepath
fill
0.667 0.776 0.439 edgecolor
newpath 340 299 moveto
350 295 lineto
340 292 lineto
closepath
stroke
end grestore
end grestore
% Node13
[ /Rect [ 277 228 543 248 ]
  /Border [ 0 0 0 ]
  /Action << /Subtype /URI /URI ($tests_8h.html#425d300598a605b03faefe638a32fb2d) >>
  /Subtype /Link
/ANN pdfmark
gsave 10 dict begin
filled
0.000 1.000 1.000 nodecolor
0.000 0.000 1.000 nodecolor
newpath 277 228 moveto
544 228 lineto
544 248 lineto
277 248 lineto
closepath
fill
0.000 1.000 1.000 nodecolor
newpath 277 228 moveto
544 228 lineto
544 248 lineto
277 248 lineto
closepath
stroke
gsave 10 dict begin
0.000 0.000 0.000 nodecolor
284 235 moveto
(testCalcTransmission2uncoupledDegenerateModes)
[3.84 6 5.04 3.84 6.72 6 2.88 5.52 4.56 4.08 6 6.24 5.04 9.6 2.88 5.04 5.04 2.88 6 6.24 6.24 6.24 6.24 5.52 6 6.24 6.24 2.88 6 6.24 7.44 6 6.24 6 6.24 6 4.08 6 3.84 6 8.4 6 6.24 6 5.04]
xshow
end grestore
end grestore
% Node12->Node13
gsave 10 dict begin
solid
0.667 0.776 0.439 edgecolor
newpath 210 115 moveto
215 117 220 120 224 124 curveto
258 155 225 192 260 219 curveto
262 221 265 223 268 225 curveto
stroke
gsave 10 dict begin
solid
1 setlinewidth
0.667 0.776 0.439 edgecolor
newpath 267 228 moveto
277 230 lineto
270 222 lineto
closepath
fill
0.667 0.776 0.439 edgecolor
newpath 267 228 moveto
277 230 lineto
270 222 lineto
closepath
stroke
end grestore
end grestore
% Node14
[ /Rect [ 321 190 499 210 ]
  /Border [ 0 0 0 ]
  /Action << /Subtype /URI /URI ($tests_8h.html#ae13ab233739fb56b788f5e72ad6ae47) >>
  /Subtype /Link
/ANN pdfmark
gsave 10 dict begin
filled
0.000 1.000 1.000 nodecolor
0.000 0.000 1.000 nodecolor
newpath 321 190 moveto
499 190 lineto
499 210 lineto
321 210 lineto
closepath
fill
0.000 1.000 1.000 nodecolor
newpath 321 190 moveto
499 190 lineto
499 210 lineto
321 210 lineto
closepath
stroke
gsave 10 dict begin
0.000 0.000 0.000 nodecolor
329 197 moveto
(testCalcTransmissionDiatomic1D)
[3.84 6 5.04 3.84 6.72 6 2.88 5.52 4.56 4.08 6 6.24 5.04 9.6 2.88 5.04 5.04 2.88 6 6.24 7.44 2.88 6 3.84 6 9.6 2.88 5.52 6.24 7.44]
xshow
end grestore
end grestore
% Node12->Node14
gsave 10 dict begin
solid
0.667 0.776 0.439 edgecolor
newpath 208 115 moveto
214 117 219 120 224 124 curveto
249 142 235 165 260 181 curveto
275 191 293 197 311 200 curveto
stroke
gsave 10 dict begin
solid
1 setlinewidth
0.667 0.776 0.439 edgecolor
newpath 311 203 moveto
321 202 lineto
312 197 lineto
closepath
fill
0.667 0.776 0.439 edgecolor
newpath 311 203 moveto
321 202 lineto
312 197 lineto
closepath
stroke
end grestore
end grestore
% Node15
[ /Rect [ 287 152 533 172 ]
  /Border [ 0 0 0 ]
  /Action << /Subtype /URI /URI ($tests_8h.html#91e5bab4ea43a342413a4c54d2d4f93b) >>
  /Subtype /Link
/ANN pdfmark
gsave 10 dict begin
filled
0.000 1.000 1.000 nodecolor
0.000 0.000 1.000 nodecolor
newpath 287 152 moveto
533 152 lineto
533 172 lineto
287 172 lineto
closepath
fill
0.000 1.000 1.000 nodecolor
newpath 287 152 moveto
533 152 lineto
533 172 lineto
287 172 lineto
closepath
stroke
gsave 10 dict begin
0.000 0.000 0.000 nodecolor
295 159 moveto
(testCalcTransmissionDiatomicIdentityGammas)
[3.84 6 5.04 3.84 6.72 6 2.88 5.52 4.56 4.08 6 6.24 5.04 9.6 2.88 5.04 5.04 2.88 6 6.24 7.44 2.88 6 3.84 6 9.6 2.88 5.52 2.88 6.24 6 6.24 3.84 2.88 3.84 5.76 7.44 6 9.6 9.6 6 5.04]
xshow
end grestore
end grestore
% Node12->Node15
gsave 10 dict begin
solid
0.667 0.776 0.439 edgecolor
newpath 196 115 moveto
205 118 215 121 224 124 curveto
241 131 243 138 260 143 curveto
268 146 276 148 285 150 curveto
stroke
gsave 10 dict begin
solid
1 setlinewidth
0.667 0.776 0.439 edgecolor
newpath 285 153 moveto
295 152 lineto
286 147 lineto
closepath
fill
0.667 0.776 0.439 edgecolor
newpath 285 153 moveto
295 152 lineto
286 147 lineto
closepath
stroke
end grestore
end grestore
% Node16
[ /Rect [ 279 114 541 134 ]
  /Border [ 0 0 0 ]
  /Action << /Subtype /URI /URI ($tests_8h.html#8d91d7593024da6df40ce08d30e61794) >>
  /Subtype /Link
/ANN pdfmark
gsave 10 dict begin
filled
0.000 1.000 1.000 nodecolor
0.000 0.000 1.000 nodecolor
newpath 279 114 moveto
541 114 lineto
541 134 lineto
279 134 lineto
closepath
fill
0.000 1.000 1.000 nodecolor
newpath 279 114 moveto
541 114 lineto
541 134 lineto
279 134 lineto
closepath
stroke
gsave 10 dict begin
0.000 0.000 0.000 nodecolor
287 121 moveto
(testCalcTransmissionGammaOnesDiagonalGreens)
[3.84 6 5.04 3.84 6.72 6 2.88 5.52 4.56 4.08 6 6.24 5.04 9.6 2.88 5.04 5.04 2.88 6 6.24 7.44 6 9.6 9.6 6 7.44 6.24 6 5.04 7.44 2.88 6 6.24 6 6.24 6 2.88 7.44 3.84 6 6 6.24 5.04]
xshow
end grestore
end grestore
% Node12->Node16
gsave 10 dict begin
solid
0.667 0.776 0.439 edgecolor
newpath 214 109 moveto
231 111 250 112 269 113 curveto
stroke
gsave 10 dict begin
solid
1 setlinewidth
0.667 0.776 0.439 edgecolor
newpath 269 116 moveto
279 114 lineto
269 110 lineto
closepath
fill
0.667 0.776 0.439 edgecolor
newpath 269 116 moveto
279 114 lineto
269 110 lineto
closepath
stroke
end grestore
end grestore
% Node17
[ /Rect [ 299 76 521 96 ]
  /Border [ 0 0 0 ]
  /Action << /Subtype /URI /URI ($tests_8h.html#50f065373d4e4f26a5bae7513b0aa1d3) >>
  /Subtype /Link
/ANN pdfmark
gsave 10 dict begin
filled
0.000 1.000 1.000 nodecolor
0.000 0.000 1.000 nodecolor
newpath 299 76 moveto
521 76 lineto
521 96 lineto
299 96 lineto
closepath
fill
0.000 1.000 1.000 nodecolor
newpath 299 76 moveto
521 76 lineto
521 96 lineto
299 96 lineto
closepath
stroke
gsave 10 dict begin
0.000 0.000 0.000 nodecolor
307 83 moveto
(testCalcTransmissionIdentityMatrixesOnly)
[3.84 6 5.04 3.84 6.72 6 2.88 5.52 4.56 4.08 6 6.24 5.04 9.6 2.88 5.04 5.04 2.88 6 6.24 2.88 6.24 6 6.24 3.84 2.88 3.84 5.76 8.4 6 3.84 4.08 2.88 5.52 6 5.04 7.44 6.24 2.88 5.76]
xshow
end grestore
end grestore
% Node12->Node17
gsave 10 dict begin
solid
0.667 0.776 0.439 edgecolor
newpath 214 101 moveto
236 99 263 97 289 95 curveto
stroke
gsave 10 dict begin
solid
1 setlinewidth
0.667 0.776 0.439 edgecolor
newpath 289 98 moveto
299 94 lineto
289 92 lineto
closepath
fill
0.667 0.776 0.439 edgecolor
newpath 289 98 moveto
299 94 lineto
289 92 lineto
closepath
stroke
end grestore
end grestore
% Node18
[ /Rect [ 328 38 492 58 ]
  /Border [ 0 0 0 ]
  /Action << /Subtype /URI /URI ($tests_8h.html#e31361a603224471c71f9739e60c28d4) >>
  /Subtype /Link
/ANN pdfmark
gsave 10 dict begin
filled
0.000 1.000 1.000 nodecolor
0.000 0.000 1.000 nodecolor
newpath 328 38 moveto
493 38 lineto
493 58 lineto
328 58 lineto
closepath
fill
0.000 1.000 1.000 nodecolor
newpath 328 38 moveto
493 38 lineto
493 58 lineto
328 58 lineto
closepath
stroke
gsave 10 dict begin
0.000 0.000 0.000 nodecolor
335 45 moveto
(testCalcTransmissionTriatomic)
[3.84 6 5.04 3.84 6.72 6 2.88 5.52 4.56 4.08 6 6.24 5.04 9.6 2.88 5.04 5.04 2.88 6 6.24 4.56 4.08 2.88 6 3.84 6 9.6 2.88 5.52]
xshow
end grestore
end grestore
% Node12->Node18
gsave 10 dict begin
solid
0.667 0.776 0.439 edgecolor
newpath 178 95 moveto
199 86 231 74 260 67 curveto
279 63 299 59 318 56 curveto
stroke
gsave 10 dict begin
solid
1 setlinewidth
0.667 0.776 0.439 edgecolor
newpath 318 59 moveto
328 55 lineto
318 53 lineto
closepath
fill
0.667 0.776 0.439 edgecolor
newpath 318 59 moveto
328 55 lineto
318 53 lineto
closepath
stroke
end grestore
end grestore
% Node19
[ /Rect [ 260 0 560 20 ]
  /Border [ 0 0 0 ]
  /Action << /Subtype /URI /URI ($tests_8h.html#61b2fa2a169dcbaeb75585986ac46757) >>
  /Subtype /Link
/ANN pdfmark
gsave 10 dict begin
filled
0.000 1.000 1.000 nodecolor
0.000 0.000 1.000 nodecolor
newpath 260 0 moveto
560 0 lineto
560 20 lineto
260 20 lineto
closepath
fill
0.000 1.000 1.000 nodecolor
newpath 260 0 moveto
560 0 lineto
560 20 lineto
260 20 lineto
closepath
stroke
gsave 10 dict begin
0.000 0.000 0.000 nodecolor
268 7 moveto
(testCalcTransmissionTriatomicDiagonalPartOfFullGammas)
[3.84 6 5.04 3.84 6.72 6 2.88 5.52 4.56 4.08 6 6.24 5.04 9.6 2.88 5.04 5.04 2.88 6 6.24 4.56 4.08 2.88 6 3.84 6 9.6 2.88 5.52 7.44 2.88 6 6.24 6 6.24 6 2.88 5.28 6 4.08 3.84 7.44 3.36 5.04 6.24 2.88 2.88 7.44 6 9.6 9.6 6 5.04]
xshow
end grestore
end grestore
% Node12->Node19
gsave 10 dict begin
solid
0.667 0.776 0.439 edgecolor
newpath 165 95 moveto
183 78 221 45 260 29 curveto
266 26 273 24 280 22 curveto
stroke
gsave 10 dict begin
solid
1 setlinewidth
0.667 0.776 0.439 edgecolor
newpath 281 25 moveto
290 20 lineto
280 19 lineto
closepath
fill
0.667 0.776 0.439 edgecolor
newpath 281 25 moveto
290 20 lineto
280 19 lineto
closepath
stroke
end grestore
end grestore
% Node14->Node3
gsave 10 dict begin
solid
0.667 0.776 0.439 edgecolor
newpath 499 203 moveto
520 206 541 211 560 219 curveto
586 230 611 252 626 268 curveto
stroke
gsave 10 dict begin
solid
1 setlinewidth
0.667 0.776 0.439 edgecolor
newpath 623 270 moveto
633 275 lineto
628 265 lineto
closepath
fill
0.667 0.776 0.439 edgecolor
newpath 623 270 moveto
633 275 lineto
628 265 lineto
closepath
stroke
end grestore
end grestore
endpage
showpage
grestore
%%PageTrailer
%%EndPage: 1
%%Trailer
%%Pages: 1
end
restore
%%EOF
